final_project/sim/angle_number_sprite.vcd
$date
	Fri Dec  1 00:50:09 2023
$end
$version
	Icarus Verilog
$end
$timescale
	1ps
$end
$scope module angle_number_sprite_tb $end
$var wire 8 ! red_out [7:0] $end
$var wire 8 " green_out [7:0] $end
$var wire 8 # blue_out [7:0] $end
$var reg 11 $ hcount_in [10:0] $end
$var reg 1 % pixel_clk_in $end
$var reg 1 & rst_in $end
$scope module uut $end
$var wire 1 ' dina $end
$var wire 1 ( ena $end
$var wire 11 ) hcount_in [10:0] $end
$var wire 1 * in_num_1 $end
$var wire 1 + in_num_2 $end
$var wire 1 , in_num_3 $end
$var wire 1 - in_sprite $end
$var wire 10 . num_in [9:0] $end
$var wire 1 % pixel_clk_in $end
$var wire 1 / regcea $end
$var wire 1 & rst_in $end
$var wire 10 0 vcount_in [9:0] $end
$var wire 1 1 wea $end
$var wire 11 2 x_in [10:0] $end
$var wire 10 3 y_in [9:0] $end
$var wire 8 4 red_out [7:0] $end
$var wire 14 5 image_addr_3 [13:0] $end
$var wire 14 6 image_addr_2 [13:0] $end
$var wire 14 7 image_addr_1 [13:0] $end
$var wire 8 8 green_out [7:0] $end
$var wire 2 9 dout_image_3 [1:0] $end
$var wire 2 : dout_image_2 [1:0] $end
$var wire 2 ; dout_image_1 [1:0] $end
$var wire 24 < colors_out_3 [23:0] $end
$var wire 24 = colors_out_2 [23:0] $end
$var wire 24 > colors_out_1 [23:0] $end
$var wire 8 ? blue_out [7:0] $end
$var parameter 32 @ HEIGHT $end
$var parameter 32 A NUMBERS $end
$var parameter 32 B NUMWIDTH $end
$var reg 24 C colors_out [23:0] $end
$var reg 4 D num_1 [3:0] $end
$var reg 4 E num_2 [3:0] $end
$var reg 4 F num_3 [3:0] $end
$scope module num1 $end
$var wire 14 G addra [13:0] $end
$var wire 1 % clka $end
$var wire 2 H dina [1:0] $end
$var wire 1 ( ena $end
$var wire 1 / regcea $end
$var wire 1 & rsta $end
$var wire 1 1 wea $end
$var wire 2 I douta [1:0] $end
$var parameter 144 J INIT_FILE $end
$var parameter 96 K RAM_DEPTH $end
$var parameter 128 L RAM_PERFORMANCE $end
$var parameter 2 M RAM_WIDTH $end
$var reg 2 N ram_data [1:0] $end
$scope function clogb2 $end
$var integer 32 O depth [31:0] $end
$upscope $end
$scope begin output_register $end
$var reg 2 P douta_reg [1:0] $end
$upscope $end
$scope begin use_init_file $end
$upscope $end
$upscope $end
$scope module num1_palette $end
$var wire 1 Q addra $end
$var wire 1 % clka $end
$var wire 24 R dina [23:0] $end
$var wire 1 ( ena $end
$var wire 1 / regcea $end
$var wire 1 & rsta $end
$var wire 1 1 wea $end
$var wire 24 S douta [23:0] $end
$var parameter 168 T INIT_FILE $end
$var parameter 2 U RAM_DEPTH $end
$var parameter 128 V RAM_PERFORMANCE $end
$var parameter 5 W RAM_WIDTH $end
$var reg 24 X ram_data [23:0] $end
$scope function clogb2 $end
$var integer 32 Y depth [31:0] $end
$upscope $end
$scope begin output_register $end
$var reg 24 Z douta_reg [23:0] $end
$upscope $end
$scope begin use_init_file $end
$upscope $end
$upscope $end
$scope module num2 $end
$var wire 14 [ addra [13:0] $end
$var wire 1 % clka $end
$var wire 2 \ dina [1:0] $end
$var wire 1 ( ena $end
$var wire 1 / regcea $end
$var wire 1 & rsta $end
$var wire 1 1 wea $end
$var wire 2 ] douta [1:0] $end
$var parameter 144 ^ INIT_FILE $end
$var parameter 96 _ RAM_DEPTH $end
$var parameter 128 ` RAM_PERFORMANCE $end
$var parameter 2 a RAM_WIDTH $end
$var reg 2 b ram_data [1:0] $end
$scope function clogb2 $end
$var integer 32 c depth [31:0] $end
$upscope $end
$scope begin output_register $end
$var reg 2 d douta_reg [1:0] $end
$upscope $end
$scope begin use_init_file $end
$upscope $end
$upscope $end
$scope module num2_palette $end
$var wire 1 e addra $end
$var wire 1 % clka $end
$var wire 24 f dina [23:0] $end
$var wire 1 ( ena $end
$var wire 1 / regcea $end
$var wire 1 & rsta $end
$var wire 1 1 wea $end
$var wire 24 g douta [23:0] $end
$var parameter 168 h INIT_FILE $end
$var parameter 2 i RAM_DEPTH $end
$var parameter 128 j RAM_PERFORMANCE $end
$var parameter 5 k RAM_WIDTH $end
$var reg 24 l ram_data [23:0] $end
$scope function clogb2 $end
$var integer 32 m depth [31:0] $end
$upscope $end
$scope begin output_register $end
$var reg 24 n douta_reg [23:0] $end
$upscope $end
$scope begin use_init_file $end
$upscope $end
$upscope $end
$scope module num3 $end
$var wire 14 o addra [13:0] $end
$var wire 1 % clka $end
$var wire 2 p dina [1:0] $end
$var wire 1 ( ena $end
$var wire 1 / regcea $end
$var wire 1 & rsta $end
$var wire 1 1 wea $end
$var wire 2 q douta [1:0] $end
$var parameter 144 r INIT_FILE $end
$var parameter 96 s RAM_DEPTH $end
$var parameter 128 t RAM_PERFORMANCE $end
$var parameter 2 u RAM_WIDTH $end
$var reg 2 v ram_data [1:0] $end
$scope function clogb2 $end
$var integer 32 w depth [31:0] $end
$upscope $end
$scope begin output_register $end
$var reg 2 x douta_reg [1:0] $end
$upscope $end
$scope begin use_init_file $end
$upscope $end
$upscope $end
$scope module num3_palette $end
$var wire 1 y addra $end
$var wire 1 % clka $end
$var wire 24 z dina [23:0] $end
$var wire 1 ( ena $end
$var wire 1 / regcea $end
$var wire 1 & rsta $end
$var wire 1 1 wea $end
$var wire 24 { douta [23:0] $end
$var parameter 168 | INIT_FILE $end
$var parameter 2 } RAM_DEPTH $end
$var parameter 128 ~ RAM_PERFORMANCE $end
$var parameter 5 !" RAM_WIDTH $end
$var reg 24 "" ram_data [23:0] $end
$scope function clogb2 $end
$var integer 32 #" depth [31:0] $end
$upscope $end
$scope begin output_register $end
$var reg 24 $" douta_reg [23:0] $end
$upscope $end
$scope begin use_init_file $end
$upscope $end
$upscope $end
$upscope $end
$upscope $end
$enddefinitions $end
$comment Show the parameter values. $end
$dumpall
b11000 !"
b1001000010010010100011101001000010111110101000001000101010100100100011001001111010100100100110101000001010011100100001101000101 ~
b10 }
b11001000110000101110100011000010010111101110111011011110111001001100100010111110111000001100001011011000110010101110100011101000110010100101110011011010110010101101101 |
b10 u
b1001000010010010100011101001000010111110101000001000101010100100100011001001111010100100100110101000001010011100100001101000101 t
b10100000000000 s
b11001000110000101110100011000010010111101101110011101010110110101011111011010010110110101100001011001110110010100101110011011010110010101101101 r
b11000 k
b1001000010010010100011101001000010111110101000001000101010100100100011001001111010100100100110101000001010011100100001101000101 j
b10 i
b11001000110000101110100011000010010111101110111011011110111001001100100010111110111000001100001011011000110010101110100011101000110010100101110011011010110010101101101 h
b10 a
b1001000010010010100011101001000010111110101000001000101010100100100011001001111010100100100110101000001010011100100001101000101 `
b10100000000000 _
b11001000110000101110100011000010010111101101110011101010110110101011111011010010110110101100001011001110110010100101110011011010110010101101101 ^
b11000 W
b1001000010010010100011101001000010111110101000001000101010100100100011001001111010100100100110101000001010011100100001101000101 V
b10 U
b11001000110000101110100011000010010111101110111011011110111001001100100010111110111000001100001011011000110010101110100011101000110010100101110011011010110010101101101 T
b10 M
b1001000010010010100011101001000010111110101000001000101010100100100011001001111010100100100110101000001010011100100001101000101 L
b10100000000000 K
b11001000110000101110100011000010010111101101110011101010110110101011111011010010110110101100001011001110110010100101110011011010110010101101101 J
b100000 B
b11 A
b100000 @
$end
#0
$dumpvars
b0 $"
bx #"
b0 ""
b0 {
b0 z
0y
b0 x
bx w
b0 v
b0 q
b0 p
b1011000000000 o
b0 n
bx m
b0 l
b0 g
b0 f
0e
b0 d
bx c
b0 b
b0 ]
b0 \
b1111000000000 [
b0 Z
bx Y
b0 X
b0 S
b0 R
0Q
b0 P
bx O
b0 N
b0 I
b0 H
b101000000000 G
b101 F
b111 E
b10 D
b0 C
b0 ?
b0 >
b0 =
b0 <
b0 ;
b0 :
b0 9
b0 8
b101000000000 7
b1111000000000 6
b1011000000000 5
b0 4
b0 3
b0 2
01
b10000 0
1/
b100010011 .
x-
x,
x+
x*
b0 )
1(
0'
0&
0%
b0 $
b0 #
b0 "
b0 !
$end
#5000
b1 N
b101010001010100010101000 X
b1 b
b101010001010100010101000 l
b1 v
b101010001010100010101000 ""
1%
#10000
0%
1&
#15000
1-
1*
0+
0,
1%
#20000
0%
0&
#25000
b10101000 !
b10101000 4
b10101000 "
b10101000 8
b10101000 #
b10101000 ?
1Q
1e
1y
b101010001010100010101000 C
b1 ;
b1 I
b1 P
b101010001010100010101000 >
b101010001010100010101000 S
b101010001010100010101000 Z
b1 :
b1 ]
b1 d
b101010001010100010101000 =
b101010001010100010101000 g
b101010001010100010101000 n
b1 9
b1 q
b1 x
b101010001010100010101000 <
b101010001010100010101000 {
b101010001010100010101000 $"
1%
#30000
0%
#35000
b0 ""
b0 l
b0 X
1%
#40000
b101000000001 7
b101000000001 G
b1111000000001 6
b1111000000001 [
b1011000000001 5
b1011000000001 o
0%
b1 $
b1 )
#45000
b0 !
b0 4
b0 "
b0 8
b0 #
b0 ?
b0 C
b0 >
b0 S
b0 Z
b0 =
b0 g
b0 n
b0 <
b0 {
b0 $"
1%
#50000
b101000000010 7
b101000000010 G
b1111000000010 6
b1111000000010 [
b1011000000010 5
b1011000000010 o
0%
b10 $
b10 )
#55000
1%
#60000
b101000000011 7
b101000000011 G
b1111000000011 6
b1111000000011 [
b1011000000011 5
b1011000000011 o
0%
b11 $
b11 )
#65000
1%
#70000
b101000000100 7
b101000000100 G
b1111000000100 6
b1111000000100 [
b1011000000100 5
b1011000000100 o
0%
b100 $
b100 )
#75000
1%
#80000
b101000000101 7
b101000000101 G
b1111000000101 6
b1111000000101 [
b1011000000101 5
b1011000000101 o
0%
b101 $
b101 )
#85000
1%
#90000
b101000000110 7
b101000000110 G
b1111000000110 6
b1111000000110 [
b1011000000110 5
b1011000000110 o
0%
b110 $
b110 )
#95000
1%
#100000
b101000000111 7
b101000000111 G
b1111000000111 6
b1111000000111 [
b1011000000111 5
b1011000000111 o
0%
b111 $
b111 )
#105000
1%
#110000
b101000001000 7
b101000001000 G
b1111000001000 6
b1111000001000 [
b1011000001000 5
b1011000001000 o
0%
b1000 $
b1000 )
#115000
1%
#120000
b101000001001 7
b101000001001 G
b1111000001001 6
b1111000001001 [
b1011000001001 5
b1011000001001 o
0%
b1001 $
b1001 )
#125000
b0 v
1%
#130000
b101000001010 7
b101000001010 G
b1111000001010 6
b1111000001010 [
b1011000001010 5
b1011000001010 o
0%
b1010 $
b1010 )
#135000
0y
b0 9
b0 q
b0 x
1%
#140000
b101000001011 7
b101000001011 G
b1111000001011 6
b1111000001011 [
b1011000001011 5
b1011000001011 o
0%
b1011 $
b1011 )
#145000
b1 v
b101010001010100010101000 ""
1%
#150000
b101000001100 7
b101000001100 G
b1111000001100 6
b1111000001100 [
b1011000001100 5
b1011000001100 o
0%
b1100 $
b1100 )
#155000
1y
b101010001010100010101000 <
b101010001010100010101000 {
b101010001010100010101000 $"
b1 9
b1 q
b1 x
1%
#160000
b101000001101 7
b101000001101 G
b1111000001101 6
b1111000001101 [
b1011000001101 5
b1011000001101 o
0%
b1101 $
b1101 )
#165000
b0 N
b0 ""
1%
#170000
b101000001110 7
b101000001110 G
b1111000001110 6
b1111000001110 [
b1011000001110 5
b1011000001110 o
0%
b1110 $
b1110 )
#175000
0Q
b0 <
b0 {
b0 $"
b0 ;
b0 I
b0 P
1%
#180000
b101000001111 7
b101000001111 G
b1111000001111 6
b1111000001111 [
b1011000001111 5
b1011000001111 o
0%
b1111 $
b1111 )
#185000
b101010001010100010101000 X
b0 b
1%
#190000
b101000010000 7
b101000010000 G
b1111000010000 6
b1111000010000 [
b1011000010000 5
b1011000010000 o
0%
b10000 $
b10000 )
#195000
b10101000 !
b10101000 4
b10101000 "
b10101000 8
b10101000 #
b10101000 ?
0e
b101010001010100010101000 C
b0 :
b0 ]
b0 d
b101010001010100010101000 >
b101010001010100010101000 S
b101010001010100010101000 Z
1%
#200000
b101000010001 7
b101000010001 G
b1111000010001 6
b1111000010001 [
b1011000010001 5
b1011000010001 o
0%
b10001 $
b10001 )
#205000
b101010001010100010101000 l
1%
#210000
b101000010010 7
b101000010010 G
b1111000010010 6
b1111000010010 [
b1011000010010 5
b1011000010010 o
0%
b10010 $
b10010 )
#215000
b101010001010100010101000 =
b101010001010100010101000 g
b101010001010100010101000 n
b1 b
1%
#220000
b101000010011 7
b101000010011 G
b1111000010011 6
b1111000010011 [
b1011000010011 5
b1011000010011 o
0%
b10011 $
b10011 )
#225000
1e
b1 :
b1 ]
b1 d
1%
#230000
b101000010100 7
b101000010100 G
b1111000010100 6
b1111000010100 [
b1011000010100 5
b1011000010100 o
0%
b10100 $
b10100 )
#235000
b0 l
b1 N
1%
#240000
b101000010101 7
b101000010101 G
b1111000010101 6
b1111000010101 [
b1011000010101 5
b1011000010101 o
0%
b10101 $
b10101 )
#245000
1Q
b1 ;
b1 I
b1 P
b0 =
b0 g
b0 n
b0 v
1%
#250000
b101000010110 7
b101000010110 G
b1111000010110 6
b1111000010110 [
b1011000010110 5
b1011000010110 o
0%
b10110 $
b10110 )
#255000
0y
b0 9
b0 q
b0 x
b0 X
1%
#260000
b101000010111 7
b101000010111 G
b1111000010111 6
b1111000010111 [
b1011000010111 5
b1011000010111 o
0%
b10111 $
b10111 )
#265000
b0 !
b0 4
b0 "
b0 8
b0 #
b0 ?
b0 C
b0 >
b0 S
b0 Z
b101010001010100010101000 ""
1%
#270000
b101000011000 7
b101000011000 G
b1111000011000 6
b1111000011000 [
b1011000011000 5
b1011000011000 o
0%
b11000 $
b11000 )
#275000
b101010001010100010101000 <
b101010001010100010101000 {
b101010001010100010101000 $"
b1 v
1%
#280000
b101000011001 7
b101000011001 G
b1111000011001 6
b1111000011001 [
b1011000011001 5
b1011000011001 o
0%
b11001 $
b11001 )
#285000
1y
b1 9
b1 q
b1 x
1%
#290000
b101000011010 7
b101000011010 G
b1111000011010 6
b1111000011010 [
b1011000011010 5
b1011000011010 o
0%
b11010 $
b11010 )
#295000
b0 ""
1%
#300000
b101000011011 7
b101000011011 G
b1111000011011 6
b1111000011011 [
b1011000011011 5
b1011000011011 o
0%
b11011 $
b11011 )
#305000
b0 <
b0 {
b0 $"
1%
#310000
b101000011100 7
b101000011100 G
b1111000011100 6
b1111000011100 [
b1011000011100 5
b1011000011100 o
0%
b11100 $
b11100 )
#315000
1%
#320000
b101000011101 7
b101000011101 G
b1111000011101 6
b1111000011101 [
b1011000011101 5
b1011000011101 o
0%
b11101 $
b11101 )
#325000
1%
#330000
b101000011110 7
b101000011110 G
b1111000011110 6
b1111000011110 [
b1011000011110 5
b1011000011110 o
0%
b11110 $
b11110 )
#335000
1%
#340000
b101000011111 7
b101000011111 G
b1111000011111 6
b1111000011111 [
b1011000011111 5
b1011000011111 o
0%
b11111 $
b11111 )
#345000
1%
#350000
b101000100000 7
b101000100000 G
b1111000100000 6
b1111000100000 [
b1011000100000 5
b1011000100000 o
0%
b100000 $
b100000 )
#355000
1%
#360000
b101000100001 7
b101000100001 G
b1111000100001 6
b1111000100001 [
b1011000100001 5
b1011000100001 o
0%
b100001 $
b100001 )
#365000
0*
1+
1%
#370000
b101000100010 7
b101000100010 G
b1111000100010 6
b1111000100010 [
b1011000100010 5
b1011000100010 o
0%
b100010 $
b100010 )
#375000
1%
#380000
b101000100011 7
b101000100011 G
b1111000100011 6
b1111000100011 [
b1011000100011 5
b1011000100011 o
0%
b100011 $
b100011 )
#385000
1%
#390000
b101000100100 7
b101000100100 G
b1111000100100 6
b1111000100100 [
b1011000100100 5
b1011000100100 o
0%
b100100 $
b100100 )
#395000
1%
#400000
b101000100101 7
b101000100101 G
b1111000100101 6
b1111000100101 [
b1011000100101 5
b1011000100101 o
0%
b100101 $
b100101 )
#405000
1%
#410000
b101000100110 7
b101000100110 G
b1111000100110 6
b1111000100110 [
b1011000100110 5
b1011000100110 o
0%
b100110 $
b100110 )
#415000
1%
#420000
b101000100111 7
b101000100111 G
b1111000100111 6
b1111000100111 [
b1011000100111 5
b1011000100111 o
0%
b100111 $
b100111 )
#425000
1%
#430000
b101000101000 7
b101000101000 G
b1111000101000 6
b1111000101000 [
b1011000101000 5
b1011000101000 o
0%
b101000 $
b101000 )
#435000
1%
#440000
b101000101001 7
b101000101001 G
b1111000101001 6
b1111000101001 [
b1011000101001 5
b1011000101001 o
0%
b101001 $
b101001 )
#445000
1%
#450000
b101000101010 7
b101000101010 G
b1111000101010 6
b1111000101010 [
b1011000101010 5
b1011000101010 o
0%
b101010 $
b101010 )
#455000
1%
#460000
b101000101011 7
b101000101011 G
b1111000101011 6
b1111000101011 [
b1011000101011 5
b1011000101011 o
0%
b101011 $
b101011 )
#465000
b0 N
1%
#470000
b101000101100 7
b101000101100 G
b1111000101100 6
b1111000101100 [
b1011000101100 5
b1011000101100 o
0%
b101100 $
b101100 )
#475000
0Q
b0 ;
b0 I
b0 P
1%
#480000
b101000101101 7
b101000101101 G
b1111000101101 6
b1111000101101 [
b1011000101101 5
b1011000101101 o
0%
b101101 $
b101101 )
#485000
b101010001010100010101000 X
1%
#490000
b101000101110 7
b101000101110 G
b1111000101110 6
b1111000101110 [
b1011000101110 5
b1011000101110 o
0%
b101110 $
b101110 )
#495000
b0 b
b101010001010100010101000 >
b101010001010100010101000 S
b101010001010100010101000 Z
1%
#500000
b101000101111 7
b101000101111 G
b1111000101111 6
b1111000101111 [
b1011000101111 5
b1011000101111 o
0%
b101111 $
b101111 )
#505000
0e
b0 :
b0 ]
b0 d
1%
#510000
b101000110000 7
b101000110000 G
b1111000110000 6
b1111000110000 [
b1011000110000 5
b1011000110000 o
0%
b110000 $
b110000 )
#515000
b101010001010100010101000 l
1%
#520000
b101000110001 7
b101000110001 G
b1111000110001 6
b1111000110001 [
b1011000110001 5
b1011000110001 o
0%
b110001 $
b110001 )
#525000
b10101000 !
b10101000 4
b10101000 "
b10101000 8
b10101000 #
b10101000 ?
b101010001010100010101000 C
b101010001010100010101000 =
b101010001010100010101000 g
b101010001010100010101000 n
1%
#530000
b101000110010 7
b101000110010 G
b1111000110010 6
b1111000110010 [
b1011000110010 5
b1011000110010 o
0%
b110010 $
b110010 )
#535000
b1 b
b1 N
1%
#540000
b101000110011 7
b101000110011 G
b1111000110011 6
b1111000110011 [
b1011000110011 5
b1011000110011 o
0%
b110011 $
b110011 )
#545000
1Q
1e
b1 ;
b1 I
b1 P
b1 :
b1 ]
b1 d
1%
#550000
b101000110100 7
b101000110100 G
b1111000110100 6
b1111000110100 [
b1011000110100 5
b1011000110100 o
0%
b110100 $
b110100 )
#555000
b0 l
b0 X
1%
#560000
b101000110101 7
b101000110101 G
b1111000110101 6
b1111000110101 [
b1011000110101 5
b1011000110101 o
0%
b110101 $
b110101 )
#565000
b0 !
b0 4
b0 "
b0 8
b0 #
b0 ?
b0 C
b0 >
b0 S
b0 Z
b0 =
b0 g
b0 n
b0 v
1%
#570000
b101000110110 7
b101000110110 G
b1111000110110 6
b1111000110110 [
b1011000110110 5
b1011000110110 o
0%
b110110 $
b110110 )
#575000
0y
b0 9
b0 q
b0 x
1%
#580000
b101000110111 7
b101000110111 G
b1111000110111 6
b1111000110111 [
b1011000110111 5
b1011000110111 o
0%
b110111 $
b110111 )
#585000
b101010001010100010101000 ""
1%
#590000
b101000111000 7
b101000111000 G
b1111000111000 6
b1111000111000 [
b1011000111000 5
b1011000111000 o
0%
b111000 $
b111000 )
#595000
b101010001010100010101000 <
b101010001010100010101000 {
b101010001010100010101000 $"
b1 v
1%
#600000
b101000111001 7
b101000111001 G
b1111000111001 6
b1111000111001 [
b1011000111001 5
b1011000111001 o
0%
b111001 $
b111001 )
#605000
1y
b1 9
b1 q
b1 x
1%
#610000
b101000111010 7
b101000111010 G
b1111000111010 6
b1111000111010 [
b1011000111010 5
b1011000111010 o
0%
b111010 $
b111010 )
#615000
b0 ""
1%
#620000
b101000111011 7
b101000111011 G
b1111000111011 6
b1111000111011 [
b1011000111011 5
b1011000111011 o
0%
b111011 $
b111011 )
#625000
b0 <
b0 {
b0 $"
1%
#630000
b101000111100 7
b101000111100 G
b1111000111100 6
b1111000111100 [
b1011000111100 5
b1011000111100 o
0%
b111100 $
b111100 )
#635000
1%
#640000
b101000111101 7
b101000111101 G
b1111000111101 6
b1111000111101 [
b1011000111101 5
b1011000111101 o
0%
b111101 $
b111101 )
#645000
1%
#650000
b101000111110 7
b101000111110 G
b1111000111110 6
b1111000111110 [
b1011000111110 5
b1011000111110 o
0%
b111110 $
b111110 )
#655000
1%
#660000
b101000111111 7
b101000111111 G
b1111000111111 6
b1111000111111 [
b1011000111111 5
b1011000111111 o
0%
b111111 $
b111111 )
#665000
1%
#670000
b101001000000 7
b101001000000 G
b1111001000000 6
b1111001000000 [
b1011001000000 5
b1011001000000 o
0%
b1000000 $
b1000000 )
#675000
1%
#680000
b101001000001 7
b101001000001 G
b1111001000001 6
b1111001000001 [
b1011001000001 5
b1011001000001 o
0%
b1000001 $
b1000001 )
#685000
0+
1,
1%
#690000
b101001000010 7
b101001000010 G
b1111001000010 6
b1111001000010 [
b1011001000010 5
b1011001000010 o
0%
b1000010 $
b1000010 )
#695000
1%
#700000
b101001000011 7
b101001000011 G
b1111001000011 6
b1111001000011 [
b1011001000011 5
b1011001000011 o
0%
b1000011 $
b1000011 )
#705000
1%
#710000
b101001000100 7
b101001000100 G
b1111001000100 6
b1111001000100 [
b1011001000100 5
b1011001000100 o
0%
b1000100 $
b1000100 )
#715000
1%
#720000
b101001000101 7
b101001000101 G
b1111001000101 6
b1111001000101 [
b1011001000101 5
b1011001000101 o
0%
b1000101 $
b1000101 )
#725000
1%
#730000
b101001000110 7
b101001000110 G
b1111001000110 6
b1111001000110 [
b1011001000110 5
b1011001000110 o
0%
b1000110 $
b1000110 )
#735000
1%
#740000
b101001000111 7
b101001000111 G
b1111001000111 6
b1111001000111 [
b1011001000111 5
b1011001000111 o
0%
b1000111 $
b1000111 )
#745000
1%
#750000
b101001001000 7
b101001001000 G
b1111001001000 6
b1111001001000 [
b1011001001000 5
b1011001001000 o
0%
b1001000 $
b1001000 )
#755000
1%
#760000
b101001001001 7
b101001001001 G
b1111001001001 6
b1111001001001 [
b1011001001001 5
b1011001001001 o
0%
b1001001 $
b1001001 )
#765000
1%
#770000
b101001001010 7
b101001001010 G
b1111001001010 6
b1111001001010 [
b1011001001010 5
b1011001001010 o
0%
b1001010 $
b1001010 )
#775000
b0 N
1%
#780000
b101001001011 7
b101001001011 G
b1111001001011 6
b1111001001011 [
b1011001001011 5
b1011001001011 o
0%
b1001011 $
b1001011 )
#785000
0Q
b0 ;
b0 I
b0 P
1%
#790000
b101001001100 7
b101001001100 G
b1111001001100 6
b1111001001100 [
b1011001001100 5
b1011001001100 o
0%
b1001100 $
b1001100 )
#795000
b101010001010100010101000 X
1%
#800000
b101001001101 7
b101001001101 G
b1111001001101 6
b1111001001101 [
b1011001001101 5
b1011001001101 o
0%
b1001101 $
b1001101 )
#805000
b101010001010100010101000 >
b101010001010100010101000 S
b101010001010100010101000 Z
1%
#810000
b101001001110 7
b101001001110 G
b1111001001110 6
b1111001001110 [
b1011001001110 5
b1011001001110 o
0%
b1001110 $
b1001110 )
#815000
b0 b
1%
#820000
b101001001111 7
b101001001111 G
b1111001001111 6
b1111001001111 [
b1011001001111 5
b1011001001111 o
0%
b1001111 $
b1001111 )
#825000
0e
b1 N
b0 :
b0 ]
b0 d
1%
#830000
b101001010000 7
b101001010000 G
b1111001010000 6
b1111001010000 [
b1011001010000 5
b1011001010000 o
0%
b1010000 $
b1010000 )
#835000
1Q
b101010001010100010101000 l
b1 ;
b1 I
b1 P
1%
#840000
b101001010001 7
b101001010001 G
b1111001010001 6
b1111001010001 [
b1011001010001 5
b1011001010001 o
0%
b1010001 $
b1010001 )
#845000
b0 X
b1 b
b101010001010100010101000 =
b101010001010100010101000 g
b101010001010100010101000 n
1%
#850000
b101001010010 7
b101001010010 G
b1111001010010 6
b1111001010010 [
b1011001010010 5
b1011001010010 o
0%
b1010010 $
b1010010 )
#855000
1e
b1 :
b1 ]
b1 d
b0 >
b0 S
b0 Z
1%
#860000
b101001010011 7
b101001010011 G
b1111001010011 6
b1111001010011 [
b1011001010011 5
b1011001010011 o
0%
b1010011 $
b1010011 )
#865000
b0 l
1%
#870000
b101001010100 7
b101001010100 G
b1111001010100 6
b1111001010100 [
b1011001010100 5
b1011001010100 o
0%
b1010100 $
b1010100 )
#875000
b0 =
b0 g
b0 n
1%
#880000
b101001010101 7
b101001010101 G
b1111001010101 6
b1111001010101 [
b1011001010101 5
b1011001010101 o
0%
b1010101 $
b1010101 )
#885000
b0 v
1%
#890000
b101001010110 7
b101001010110 G
b1111001010110 6
b1111001010110 [
b1011001010110 5
b1011001010110 o
0%
b1010110 $
b1010110 )
#895000
0y
b0 9
b0 q
b0 x
1%
#900000
b101001010111 7
b101001010111 G
b1111001010111 6
b1111001010111 [
b1011001010111 5
b1011001010111 o
0%
b1010111 $
b1010111 )
#905000
b101010001010100010101000 ""
1%
#910000
b101001011000 7
b101001011000 G
b1111001011000 6
b1111001011000 [
b1011001011000 5
b1011001011000 o
0%
b1011000 $
b1011000 )
#915000
b10101000 !
b10101000 4
b10101000 "
b10101000 8
b10101000 #
b10101000 ?
b101010001010100010101000 C
b101010001010100010101000 <
b101010001010100010101000 {
b101010001010100010101000 $"
b1 v
1%
#920000
b101001011001 7
b101001011001 G
b1111001011001 6
b1111001011001 [
b1011001011001 5
b1011001011001 o
0%
b1011001 $
b1011001 )
#925000
1y
b1 9
b1 q
b1 x
1%
#930000
b101001011010 7
b101001011010 G
b1111001011010 6
b1111001011010 [
b1011001011010 5
b1011001011010 o
0%
b1011010 $
b1011010 )
#935000
b0 ""
1%
#940000
b101001011011 7
b101001011011 G
b1111001011011 6
b1111001011011 [
b1011001011011 5
b1011001011011 o
0%
b1011011 $
b1011011 )
#945000
b0 !
b0 4
b0 "
b0 8
b0 #
b0 ?
b0 C
b0 <
b0 {
b0 $"
1%
#950000
b101001011100 7
b101001011100 G
b1111001011100 6
b1111001011100 [
b1011001011100 5
b1011001011100 o
0%
b1011100 $
b1011100 )
#955000
1%
#960000
b101001011101 7
b101001011101 G
b1111001011101 6
b1111001011101 [
b1011001011101 5
b1011001011101 o
0%
b1011101 $
b1011101 )
#965000
1%
#970000
b101001011110 7
b101001011110 G
b1111001011110 6
b1111001011110 [
b1011001011110 5
b1011001011110 o
0%
b1011110 $
b1011110 )
#975000
1%
#980000
b101001011111 7
b101001011111 G
b1111001011111 6
b1111001011111 [
b1011001011111 5
b1011001011111 o
0%
b1011111 $
b1011111 )
#985000
1%
#990000
b101001100000 7
b101001100000 G
b1111001100000 6
b1111001100000 [
b1011001100000 5
b1011001100000 o
0%
b1100000 $
b1100000 )
#995000
1%
#1000000
b101001100001 7
b101001100001 G
b1111001100001 6
b1111001100001 [
b1011001100001 5
b1011001100001 o
0%
b1100001 $
b1100001 )
#1005000
0-
0,
1%
#1010000
b101001100010 7
b101001100010 G
b1111001100010 6
b1111001100010 [
b1011001100010 5
b1011001100010 o
0%
b1100010 $
b1100010 )
#1015000
1%
#1020000
b101001100011 7
b101001100011 G
b1111001100011 6
b1111001100011 [
b1011001100011 5
b1011001100011 o
0%
b1100011 $
b1100011 )
#1025000
1%
#1030000
b101001100100 7
b101001100100 G
b1111001100100 6
b1111001100100 [
b1011001100100 5
b1011001100100 o
0%
b1100100 $
b1100100 )
#1035000
1%
#1040000
b101001100101 7
b101001100101 G
b1111001100101 6
b1111001100101 [
b1011001100101 5
b1011001100101 o
0%
b1100101 $
b1100101 )
#1045000
1%
#1050000
b101001100110 7
b101001100110 G
b1111001100110 6
b1111001100110 [
b1011001100110 5
b1011001100110 o
0%
b1100110 $
b1100110 )
#1055000
1%
#1060000
b101001100111 7
b101001100111 G
b1111001100111 6
b1111001100111 [
b1011001100111 5
b1011001100111 o
0%
b1100111 $
b1100111 )
#1065000
1%
#1070000
b101001101000 7
b101001101000 G
b1111001101000 6
b1111001101000 [
b1011001101000 5
b1011001101000 o
0%
b1101000 $
b1101000 )
#1075000
b0 v
1%
#1080000
b101001101001 7
b101001101001 G
b1111001101001 6
b1111001101001 [
b1011001101001 5
b1011001101001 o
0%
b1101001 $
b1101001 )
#1085000
0y
b0 N
b0 9
b0 q
b0 x
1%
#1090000
b101001101010 7
b101001101010 G
b1111001101010 6
b1111001101010 [
b1011001101010 5
b1011001101010 o
0%
b1101010 $
b1101010 )
#1095000
0Q
b101010001010100010101000 ""
b0 ;
b0 I
b0 P
1%
#1100000
b101001101011 7
b101001101011 G
b1111001101011 6
b1111001101011 [
b1011001101011 5
b1011001101011 o
0%
b1101011 $
b1101011 )
#1105000
b101010001010100010101000 X
b101010001010100010101000 <
b101010001010100010101000 {
b101010001010100010101000 $"
1%
#1110000
b101001101100 7
b101001101100 G
b1111001101100 6
b1111001101100 [
b1011001101100 5
b1011001101100 o
0%
b1101100 $
b1101100 )
#1115000
b1 v
b101010001010100010101000 >
b101010001010100010101000 S
b101010001010100010101000 Z
1%
#1120000
b101001101101 7
b101001101101 G
b1111001101101 6
b1111001101101 [
b1011001101101 5
b1011001101101 o
0%
b1101101 $
b1101101 )
#1125000
1y
b1 N
b1 9
b1 q
b1 x
1%
#1130000
b101001101110 7
b101001101110 G
b1111001101110 6
b1111001101110 [
b1011001101110 5
b1011001101110 o
0%
b1101110 $
b1101110 )
#1135000
1Q
b0 ""
b0 b
b1 ;
b1 I
b1 P
1%
#1140000
b101001101111 7
b101001101111 G
b1111001101111 6
b1111001101111 [
b1011001101111 5
b1011001101111 o
0%
b1101111 $
b1101111 )
#1145000
0e
b0 X
b0 :
b0 ]
b0 d
b0 <
b0 {
b0 $"
1%
