final_project/sim/angle.vcd
$date
	Tue Nov 21 15:42:47 2023
$end
$version
	Icarus Verilog
$end
$timescale
	1ps
$end
$scope module angle_division_tb $end
$var wire 1 ! valid_out $end
$var wire 8 " sun_angle_out [7:0] $end
$var wire 8 # clock_angle_out [7:0] $end
$var reg 1 $ clk_in $end
$var reg 1 % rst_in $end
$var reg 1 & valid_in $end
$var reg 11 ' x0_in [10:0] $end
$var reg 11 ( x_in [10:0] $end
$var reg 10 ) y0_in [9:0] $end
$var reg 10 * y_in [9:0] $end
$scope module uut $end
$var wire 1 $ clk_in $end
$var wire 1 & data_valid_in $end
$var wire 1 % rst_in $end
$var wire 11 + x0_in [10:0] $end
$var wire 11 , x_in [10:0] $end
$var wire 10 - y0_in [9:0] $end
$var wire 10 . y_in [9:0] $end
$var wire 9 / sun_angle_out_temp [8:0] $end
$var wire 1 0 invert $end
$var wire 1 1 divide_valid_out $end
$var wire 64 2 divide_out [63:0] $end
$var wire 1 3 divide_error_out $end
$var wire 1 4 divide_busy_out $end
$var wire 9 5 clock_angle_out_temp [8:0] $end
$var parameter 32 6 TRIG_WAIT $end
$var reg 64 7 adjsquared [63:0] $end
$var reg 9 8 clock_angle_out [8:0] $end
$var reg 1 9 divide_valid_in $end
$var reg 64 : lookup_val [63:0] $end
$var reg 64 ; oppsquared [63:0] $end
$var reg 2 < quadrant [1:0] $end
$var reg 9 = sun_angle_out [8:0] $end
$var reg 1 ! valid_out $end
$var reg 64 > x [63:0] $end
$var reg 64 ? y [63:0] $end
$var integer 32 @ state [31:0] $end
$scope module division $end
$var wire 1 $ clk_in $end
$var wire 1 9 data_valid_in $end
$var wire 64 A dividend_in [63:0] $end
$var wire 64 B divisor_in [63:0] $end
$var wire 1 % rst_in $end
$var parameter 32 C DIVIDING $end
$var parameter 32 D RESTING $end
$var parameter 32 E WIDTH $end
$var reg 1 4 busy_out $end
$var reg 1 1 data_valid_out $end
$var reg 64 F dividend [63:0] $end
$var reg 64 G divisor [63:0] $end
$var reg 1 3 error_out $end
$var reg 64 H quotient [63:0] $end
$var reg 64 I quotient_out [63:0] $end
$var reg 64 J remainder_out [63:0] $end
$var reg 1 K state $end
$upscope $end
$scope module lookup $end
$var wire 64 L ratio [63:0] $end
$var reg 8 M clock_angle_val [7:0] $end
$var reg 8 N lookup_val [7:0] $end
$var reg 8 O sun_angle_val [7:0] $end
$upscope $end
$upscope $end
$scope begin $ivl_for_loop0 $end
$var integer 32 P i [31:0] $end
$upscope $end
$scope begin $ivl_for_loop1 $end
$var integer 32 Q i [31:0] $end
$upscope $end
$scope begin $ivl_for_loop2 $end
$var integer 32 R i [31:0] $end
$upscope $end
$upscope $end
$enddefinitions $end
$comment Show the parameter values. $end
$dumpall
b1000000 E
b0 D
b1 C
b1010 6
$end
#0
$dumpvars
b0 R
b0 Q
b0 P
b0 O
b0 N
b0 M
bx L
xK
bx J
bx I
bx H
bx G
bx F
bx B
bx A
b0 @
bx ?
bx >
bx =
bx <
bx ;
bx :
x9
bx 8
bx 7
b0 5
x4
x3
bx 2
x1
x0
b0 /
b1010 .
b0 -
b0 ,
b0 +
b1010 *
b0 )
b0 (
b0 '
x&
0%
0$
bx #
bx "
x!
$end
#5000
0!
1$
#10000
0$
1%
#15000
b0 #
b0 "
b0 8
b0 =
00
b0 ?
b0 >
01
0K
03
04
b0 J
b0 G
b0 F
b0 H
1$
#20000
0$
0%
#25000
1$
#30000
0$
b1010 (
b1010 ,
#35000
1$
#40000
0$
#45000
1$
#50000
0$
#55000
1$
#60000
0$
#65000
1$
#70000
0$
#75000
1$
#80000
0$
#85000
1$
#90000
0$
#95000
1$
#100000
0$
#105000
1$
#110000
0$
#115000
1$
#120000
0$
#125000
1$
#130000
0$
#135000
1$
#140000
0$
#145000
1$
#150000
0$
#155000
1$
#160000
0$
#165000
1$
#170000
0$
#175000
1$
#180000
0$
#185000
1$
#190000
0$
#195000
1$
#200000
0$
#205000
1$
#210000
0$
#215000
1$
#220000
0$
#225000
1$
#230000
0$
#235000
1$
#240000
0$
#245000
1$
#250000
0$
#255000
1$
#260000
0$
#265000
1$
#270000
0$
#275000
1$
#280000
0$
#285000
1$
#290000
0$
#295000
1$
#300000
0$
#305000
1$
#310000
0$
#315000
1$
#320000
0$
#325000
1$
#330000
0$
#335000
1$
#340000
0$
#345000
1$
#350000
0$
#355000
1$
#360000
0$
#365000
1$
#370000
0$
#375000
1$
#380000
0$
#385000
1$
#390000
0$
#395000
1$
#400000
0$
#405000
1$
#410000
0$
#415000
1$
#420000
0$
#425000
1$
#430000
0$
#435000
1$
#440000
0$
#445000
1$
#450000
0$
#455000
1$
#460000
0$
#465000
1$
#470000
0$
#475000
1$
#480000
0$
#485000
1$
#490000
0$
#495000
1$
#500000
0$
#505000
1$
#510000
0$
#515000
1$
#520000
0$
#525000
1$
#530000
0$
#535000
1$
#540000
0$
#545000
1$
#550000
0$
#555000
1$
#560000
0$
#565000
1$
#570000
0$
#575000
1$
#580000
0$
#585000
1$
#590000
0$
#595000
1$
#600000
0$
#605000
1$
#610000
0$
#615000
1$
#620000
0$
#625000
1$
#630000
0$
#635000
1$
#640000
0$
#645000
1$
#650000
0$
#655000
1$
#660000
0$
#665000
1$
#670000
0$
#675000
1$
#680000
0$
#685000
1$
#690000
0$
#695000
1$
#700000
0$
#705000
1$
#710000
0$
#715000
1$
#720000
0$
#725000
1$
#730000
0$
#735000
1$
#740000
0$
#745000
1$
#750000
0$
#755000
1$
#760000
0$
#765000
1$
#770000
0$
#775000
1$
#780000
0$
#785000
1$
#790000
0$
#795000
1$
#800000
0$
#805000
1$
#810000
0$
#815000
1$
#820000
0$
#825000
1$
#830000
0$
#835000
1$
#840000
0$
#845000
1$
#850000
0$
#855000
1$
#860000
0$
#865000
1$
#870000
0$
#875000
1$
#880000
0$
#885000
1$
#890000
0$
#895000
1$
#900000
0$
#905000
1$
#910000
0$
#915000
1$
#920000
0$
#925000
1$
#930000
0$
#935000
1$
#940000
0$
#945000
1$
#950000
0$
#955000
1$
#960000
0$
#965000
1$
#970000
0$
#975000
1$
#980000
0$
#985000
1$
#990000
0$
#995000
1$
#1000000
0$
#1005000
1$
#1010000
0$
#1015000
1$
#1020000
0$
#1025000
1$
#1030000
0$
1%
#1035000
1$
#1040000
0$
0%
#1045000
1$
#1050000
0$
b10100 *
b10100 .
b1100100 (
b1100100 ,
b1010 )
b1010 -
b1010 '
b1010 +
