final_project/sim/image_sprite.vcd
$date
	Sat Oct 14 12:16:40 2023
$end
$version
	Icarus Verilog
$end
$timescale
	1ps
$end
$scope module image_sprite_tb $end
$var wire 8 ! red_out [7:0] $end
$var wire 8 " green_out [7:0] $end
$var wire 8 # blue_out [7:0] $end
$var reg 11 $ hcount_in [10:0] $end
$var reg 1 % pixel_clk_in $end
$var reg 1 & rst_in $end
$scope module uut $end
$var wire 1 ' dina $end
$var wire 1 ( ena $end
$var wire 11 ) hcount_in [10:0] $end
$var wire 1 * in_sprite $end
$var wire 1 % pixel_clk_in $end
$var wire 1 + regcea $end
$var wire 1 & rst_in $end
$var wire 10 , vcount_in [9:0] $end
$var wire 1 - wea $end
$var wire 11 . x_in [10:0] $end
$var wire 10 / y_in [9:0] $end
$var wire 8 0 red_out [7:0] $end
$var wire 16 1 image_addr [15:0] $end
$var wire 8 2 green_out [7:0] $end
$var wire 8 3 dout_image [7:0] $end
$var wire 24 4 colors_out [23:0] $end
$var wire 8 5 blue_out [7:0] $end
$var parameter 32 6 HEIGHT $end
$var parameter 32 7 WIDTH $end
$scope module image $end
$var wire 16 8 addra [15:0] $end
$var wire 1 % clka $end
$var wire 8 9 dina [7:0] $end
$var wire 1 ( ena $end
$var wire 1 + regcea $end
$var wire 1 & rsta $end
$var wire 1 - wea $end
$var wire 8 : douta [7:0] $end
$var parameter 112 ; INIT_FILE $end
$var parameter 64 < RAM_DEPTH $end
$var parameter 128 = RAM_PERFORMANCE $end
$var parameter 4 > RAM_WIDTH $end
$var reg 8 ? ram_data [7:0] $end
$scope function clogb2 $end
$var integer 32 @ depth [31:0] $end
$upscope $end
$scope begin output_register $end
$var reg 8 A douta_reg [7:0] $end
$upscope $end
$scope begin use_init_file $end
$upscope $end
$upscope $end
$scope module palette $end
$var wire 8 B addra [7:0] $end
$var wire 1 % clka $end
$var wire 65536 C dina [65535:0] $end
$var wire 1 ( ena $end
$var wire 1 + regcea $end
$var wire 1 & rsta $end
$var wire 1 - wea $end
$var wire 65536 D douta [65535:0] $end
$var parameter 128 E INIT_FILE $end
$var parameter 9 F RAM_DEPTH $end
$var parameter 128 G RAM_PERFORMANCE $end
$var parameter 25 H RAM_WIDTH $end
$var reg 65536 I ram_data [65535:0] $end
$scope function clogb2 $end
$var integer 32 J depth [31:0] $end
$upscope $end
$scope begin output_register $end
$var reg 65536 K douta_reg [65535:0] $end
$upscope $end
$scope begin use_init_file $end
$upscope $end
$upscope $end
$upscope $end
$upscope $end
$enddefinitions $end
$comment Show the parameter values. $end
$dumpall
b10000000000000000 H
b1001000010010010100011101001000010111110101000001000101010100100100011001001111010100100100110101000001010011100100001101000101 G
b100000000 F
b1100100011000010111010001100001001011110111000001100001011011000110010101110100011101000110010100101110011011010110010101101101 E
b1000 >
b1001000010010010100011101001000010111110101000001000101010100100100011001001111010100100100110101000001010011100100001101000101 =
b10000000000000000 <
b110010001100001011101000110000100101111011010010110110101100001011001110110010100101110011011010110010101101101 ;
b100000000 7
b100000000 6
$end
#0
$dumpvars
b0 K
bx J
b0 I
b0 D
b0 C
b0 B
b0 A
bx @
b0 ?
b0 :
b0 9
b111101100000000 8
b0 5
b0 4
b0 3
b0 2
b111101100000000 1
b0 0
b100000000 /
b100000000 .
0-
b101111100 ,
1+
0*
b0 )
1(
0'
0&
0%
b0 $
b0 #
b0 "
b0 !
$end
#5000
b11011 ?
b111011111110010011010111 I
1%
#10000
0%
1&
#15000
1%
#20000
0%
0&
#25000
b111011111110010011010111 4
b11011 3
b11011 :
b11011 B
b11011 A
b111011111110010011010111 D
b111011111110010011010111 K
1%
#30000
0%
#35000
b110011001011101010011110 I
1%
#40000
b111101100000001 1
b111101100000001 8
0%
b1 $
b1 )
#45000
b110011001011101010011110 4
b110011001011101010011110 D
b110011001011101010011110 K
1%
#50000
b111101100000010 1
b111101100000010 8
0%
b10 $
b10 )
#55000
1%
#60000
b111101100000011 1
b111101100000011 8
0%
b11 $
b11 )
#65000
1%
#70000
b111101100000100 1
b111101100000100 8
0%
b100 $
b100 )
#75000
1%
#80000
b111101100000101 1
b111101100000101 8
0%
b101 $
b101 )
#85000
1%
#90000
b111101100000110 1
b111101100000110 8
0%
b110 $
b110 )
#95000
1%
#100000
b111101100000111 1
b111101100000111 8
0%
b111 $
b111 )
#105000
1%
#110000
b111101100001000 1
b111101100001000 8
0%
b1000 $
b1000 )
#115000
1%
#120000
b111101100001001 1
b111101100001001 8
0%
b1001 $
b1001 )
#125000
1%
#130000
b111101100001010 1
b111101100001010 8
0%
b1010 $
b1010 )
#135000
1%
#140000
b111101100001011 1
b111101100001011 8
0%
b1011 $
b1011 )
#145000
1%
#150000
b111101100001100 1
b111101100001100 8
0%
b1100 $
b1100 )
#155000
1%
#160000
b111101100001101 1
b111101100001101 8
0%
b1101 $
b1101 )
#165000
1%
#170000
b111101100001110 1
b111101100001110 8
0%
b1110 $
b1110 )
#175000
1%
#180000
b111101100001111 1
b111101100001111 8
0%
b1111 $
b1111 )
#185000
1%
#190000
b111101100010000 1
b111101100010000 8
0%
b10000 $
b10000 )
#195000
1%
#200000
b111101100010001 1
b111101100010001 8
0%
b10001 $
b10001 )
#205000
1%
#210000
b111101100010010 1
b111101100010010 8
0%
b10010 $
b10010 )
#215000
1%
#220000
b111101100010011 1
b111101100010011 8
0%
b10011 $
b10011 )
#225000
1%
#230000
b111101100010100 1
b111101100010100 8
0%
b10100 $
b10100 )
#235000
1%
#240000
b111101100010101 1
b111101100010101 8
0%
b10101 $
b10101 )
#245000
1%
#250000
b111101100010110 1
b111101100010110 8
0%
b10110 $
b10110 )
#255000
1%
#260000
b111101100010111 1
b111101100010111 8
0%
b10111 $
b10111 )
#265000
1%
#270000
b111101100011000 1
b111101100011000 8
0%
b11000 $
b11000 )
#275000
1%
#280000
b111101100011001 1
b111101100011001 8
0%
b11001 $
b11001 )
#285000
1%
#290000
b111101100011010 1
b111101100011010 8
0%
b11010 $
b11010 )
#295000
1%
#300000
b111101100011011 1
b111101100011011 8
0%
b11011 $
b11011 )
#305000
1%
#310000
b111101100011100 1
b111101100011100 8
0%
b11100 $
b11100 )
#315000
1%
#320000
b111101100011101 1
b111101100011101 8
0%
b11101 $
b11101 )
#325000
1%
#330000
b111101100011110 1
b111101100011110 8
0%
b11110 $
b11110 )
#335000
1%
#340000
b111101100011111 1
b111101100011111 8
0%
b11111 $
b11111 )
#345000
1%
#350000
b111101100100000 1
b111101100100000 8
0%
b100000 $
b100000 )
#355000
1%
#360000
b111101100100001 1
b111101100100001 8
0%
b100001 $
b100001 )
#365000
1%
#370000
b111101100100010 1
b111101100100010 8
0%
b100010 $
b100010 )
#375000
1%
#380000
b111101100100011 1
b111101100100011 8
0%
b100011 $
b100011 )
#385000
1%
#390000
b111101100100100 1
b111101100100100 8
0%
b100100 $
b100100 )
#395000
1%
#400000
b111101100100101 1
b111101100100101 8
0%
b100101 $
b100101 )
#405000
1%
#410000
b111101100100110 1
b111101100100110 8
0%
b100110 $
b100110 )
#415000
1%
#420000
b111101100100111 1
b111101100100111 8
0%
b100111 $
b100111 )
#425000
1%
#430000
b111101100101000 1
b111101100101000 8
0%
b101000 $
b101000 )
#435000
1%
#440000
b111101100101001 1
b111101100101001 8
0%
b101001 $
b101001 )
#445000
b11100 ?
1%
#450000
b111101100101010 1
b111101100101010 8
0%
b101010 $
b101010 )
#455000
b101010 ?
b11100 3
b11100 :
b11100 B
b11100 A
1%
#460000
b111101100101011 1
b111101100101011 8
0%
b101011 $
b101011 )
#465000
b101010 3
b101010 :
b101010 B
b101010 A
b1000100 ?
b110010111011101010011110 I
1%
#470000
b111101100101100 1
b111101100101100 8
0%
b101100 $
b101100 )
#475000
b110010111011101010011110 4
b110010101011001110011010 I
b110010111011101010011110 D
b110010111011101010011110 K
b1010100 ?
b1000100 3
b1000100 :
b1000100 B
b1000100 A
1%
#480000
b111101100101101 1
b111101100101101 8
0%
b101101 $
b101101 )
#485000
b110010101011001110011010 4
b1010100 3
b1010100 :
b1010100 B
b1010100 A
b1011111 ?
b110010101011001110011010 D
b110010101011001110011010 K
b110000011010101110010001 I
1%
#490000
b111101100101110 1
b111101100101110 8
0%
b101110 $
b101110 )
#495000
b110000011010101110010001 4
b101110011001111110001001 I
b110000011010101110010001 D
b110000011010101110010001 K
b1101110 ?
b1011111 3
b1011111 :
b1011111 B
b1011111 A
1%
#500000
b111101100101111 1
b111101100101111 8
0%
b101111 $
b101111 )
#505000
b101110011001111110001001 4
b1101110 3
b1101110 :
b1101110 B
b1101110 A
b10010010 ?
b101110011001111110001001 D
b101110011001111110001001 K
b101011001001000101111010 I
1%
#510000
b111101100110000 1
b111101100110000 8
0%
b110000 $
b110000 )
#515000
b101011001001000101111010 4
b101001101000101001110010 I
b101011001001000101111010 D
b101011001001000101111010 K
b11000101 ?
b10010010 3
b10010010 :
b10010010 B
b10010010 A
1%
#520000
b111101100110001 1
b111101100110001 8
0%
b110001 $
b110001 )
#525000
b101001101000101001110010 4
b11000101 3
b11000101 :
b11000101 B
b11000101 A
b11010010 ?
b101001101000101001110010 D
b101001101000101001110010 K
b100101010111100001100011 I
1%
#530000
b111101100110010 1
b111101100110010 8
0%
b110010 $
b110010 )
#535000
b100101010111100001100011 4
b100000110110001101001101 I
b100101010111100001100011 D
b100101010111100001100011 K
b11010110 ?
b11010010 3
b11010010 :
b11010010 B
b11010010 A
1%
#540000
b111101100110011 1
b111101100110011 8
0%
b110011 $
b110011 )
#545000
b100000110110001101001101 4
b11010110 3
b11010110 :
b11010110 B
b11010110 A
b11010111 ?
b100000110110001101001101 D
b100000110110001101001101 K
b11101110101011001000001 I
1%
#550000
b111101100110100 1
b111101100110100 8
0%
b110100 $
b110100 )
#555000
b11101110101011001000001 4
b11001100100101100110111 I
b11101110101011001000001 D
b11101110101011001000001 K
b11011000 ?
b11010111 3
b11010111 :
b11010111 B
b11010111 A
1%
#560000
b111101100110101 1
b111101100110101 8
0%
b110101 $
b110101 )
#565000
b11001100100101100110111 4
b11011000 3
b11011000 :
b11011000 B
b11011000 A
b11001100100101100110111 D
b11001100100101100110111 K
b11001100100011000110100 I
1%
#570000
b111101100110110 1
b111101100110110 8
0%
b110110 $
b110110 )
#575000
b11001100100011000110100 4
b10111000100001100101110 I
b11001100100011000110100 D
b11001100100011000110100 K
1%
#580000
b111101100110111 1
b111101100110111 8
0%
b110111 $
b110111 )
#585000
b10111000100001100101110 4
b10111000100001100101110 D
b10111000100001100101110 K
1%
#590000
b111101100111000 1
b111101100111000 8
0%
b111000 $
b111000 )
#595000
1%
#600000
b111101100111001 1
b111101100111001 8
0%
b111001 $
b111001 )
#605000
1%
#610000
b111101100111010 1
b111101100111010 8
0%
b111010 $
b111010 )
#615000
1%
#620000
b111101100111011 1
b111101100111011 8
0%
b111011 $
b111011 )
#625000
1%
#630000
b111101100111100 1
b111101100111100 8
0%
b111100 $
b111100 )
#635000
1%
#640000
b111101100111101 1
b111101100111101 8
0%
b111101 $
b111101 )
#645000
1%
#650000
b111101100111110 1
b111101100111110 8
0%
b111110 $
b111110 )
#655000
1%
#660000
b111101100111111 1
b111101100111111 8
0%
b111111 $
b111111 )
#665000
1%
#670000
b111101101000000 1
b111101101000000 8
0%
b1000000 $
b1000000 )
#675000
1%
#680000
b111101101000001 1
b111101101000001 8
0%
b1000001 $
b1000001 )
#685000
b11011101 ?
1%
#690000
b111101101000010 1
b111101101000010 8
0%
b1000010 $
b1000010 )
#695000
b11011101 3
b11011101 :
b11011101 B
b11011101 A
1%
#700000
b111101101000011 1
b111101101000011 8
0%
b1000011 $
b1000011 )
#705000
b10110010011110000101000 I
1%
#710000
b111101101000100 1
b111101101000100 8
0%
b1000100 $
b1000100 )
#715000
b10110010011110000101000 4
b10110010011110000101000 D
b10110010011110000101000 K
b11011110 ?
1%
#720000
b111101101000101 1
b111101101000101 8
0%
b1000101 $
b1000101 )
#725000
b11011110 3
b11011110 :
b11011110 B
b11011110 A
1%
#730000
b111101101000110 1
b111101101000110 8
0%
b1000110 $
b1000110 )
#735000
b10100010011011000100100 I
b11011111 ?
1%
#740000
b111101101000111 1
b111101101000111 8
0%
b1000111 $
b1000111 )
#745000
b10100010011011000100100 4
b11011111 3
b11011111 :
b11011111 B
b11011111 A
b10100010011011000100100 D
b10100010011011000100100 K
1%
#750000
b111101101001000 1
b111101101001000 8
0%
b1001000 $
b1001000 )
#755000
b10100000010111100100010 I
b11100000 ?
1%
#760000
b111101101001001 1
b111101101001001 8
0%
b1001001 $
b1001001 )
#765000
b10100000010111100100010 4
b11100000 3
b11100000 :
b11100000 B
b11100000 A
b10100000010111100100010 D
b10100000010111100100010 K
1%
#770000
b111101101001010 1
b111101101001010 8
0%
b1001010 $
b1001010 )
#775000
b10001010010101100011010 I
1%
#780000
b111101101001011 1
b111101101001011 8
0%
b1001011 $
b1001011 )
#785000
b10001010010101100011010 4
b10001010010101100011010 D
b10001010010101100011010 K
1%
#790000
b111101101001100 1
b111101101001100 8
0%
b1001100 $
b1001100 )
#795000
b11011110 ?
1%
#800000
b111101101001101 1
b111101101001101 8
0%
b1001101 $
b1001101 )
#805000
b11011110 3
b11011110 :
b11011110 B
b11011110 A
b11011101 ?
1%
#810000
b111101101001110 1
b111101101001110 8
0%
b1001110 $
b1001110 )
#815000
b10100010011011000100100 I
b11010111 ?
b11011101 3
b11011101 :
b11011101 B
b11011101 A
1%
#820000
b111101101001111 1
b111101101001111 8
0%
b1001111 $
b1001111 )
#825000
b10100010011011000100100 4
b11010111 3
b11010111 :
b11010111 B
b11010111 A
b11010110 ?
b10100010011011000100100 D
b10100010011011000100100 K
b10110010011110000101000 I
1%
#830000
b111101101010000 1
b111101101010000 8
0%
b1010000 $
b1010000 )
#835000
b10110010011110000101000 4
b11001100100011000110100 I
b10110010011110000101000 D
b10110010011110000101000 K
b11010010 ?
b11010110 3
b11010110 :
b11010110 B
b11010110 A
1%
#840000
b111101101010001 1
b111101101010001 8
0%
b1010001 $
b1010001 )
#845000
b11001100100011000110100 4
b11010010 3
b11010010 :
b11010010 B
b11010010 A
b11001111 ?
b11001100100011000110100 D
b11001100100011000110100 K
b11001100100101100110111 I
1%
#850000
b111101101010010 1
b111101101010010 8
0%
b1010010 $
b1010010 )
#855000
b11001100100101100110111 4
b11101110101011001000001 I
b11001100100101100110111 D
b11001100100101100110111 K
b11000101 ?
b11001111 3
b11001111 :
b11001111 B
b11001111 A
1%
#860000
b111101101010011 1
b111101101010011 8
0%
b1010011 $
b1010011 )
#865000
b11101110101011001000001 4
b11000101 3
b11000101 :
b11000101 B
b11000101 A
b10101101 ?
b11101110101011001000001 D
b11101110101011001000001 K
b11110110101110101000110 I
1%
#870000
b111101101010100 1
b111101101010100 8
0%
b1010100 $
b1010100 )
#875000
b11110110101110101000110 4
b100000110110001101001101 I
b11110110101110101000110 D
b11110110101110101000110 K
b10011100 ?
b10101101 3
b10101101 :
b10101101 B
b10101101 A
1%
#880000
b111101101010101 1
b111101101010101 8
0%
b1010101 $
b1010101 )
#885000
b100000110110001101001101 4
b10011100 3
b10011100 :
b10011100 B
b10011100 A
b10001100 ?
b100000110110001101001101 D
b100000110110001101001101 K
b100010100110101101010101 I
1%
#890000
b111101101010110 1
b111101101010110 8
0%
b1010110 $
b1010110 )
#895000
b100010100110101101010101 4
b100100100111001101011100 I
b100010100110101101010101 D
b100010100110101101010101 K
b10000010 ?
b10001100 3
b10001100 :
b10001100 B
b10001100 A
1%
#900000
b111101101010111 1
b111101101010111 8
0%
b1010111 $
b1010111 )
#905000
b100100100111001101011100 4
b10000010 3
b10000010 :
b10000010 B
b10000010 A
b1111010 ?
b100100100111001101011100 D
b100100100111001101011100 K
b100110000111100101100001 I
1%
#910000
b111101101011000 1
b111101101011000 8
0%
b1011000 $
b1011000 )
#915000
b100110000111100101100001 4
b100111100111111101100100 I
b100110000111100101100001 D
b100110000111100101100001 K
b1110110 ?
b1111010 3
b1111010 :
b1111010 B
b1111010 A
1%
#920000
b111101101011001 1
b111101101011001 8
0%
b1011001 $
b1011001 )
#925000
b100111100111111101100100 4
b1110110 3
b1110110 :
b1110110 B
b1110110 A
b1110101 ?
b100111100111111101100100 D
b100111100111111101100100 K
b101000011000001101101000 I
1%
#930000
b111101101011010 1
b111101101011010 8
0%
b1011010 $
b1011010 )
#935000
b101000011000001101101000 4
b101000111000010101101100 I
b101000011000001101101000 D
b101000011000001101101000 K
b1110101 3
b1110101 :
b1110101 B
b1110101 A
1%
#940000
b111101101011011 1
b111101101011011 8
0%
b1011011 $
b1011011 )
#945000
b101000111000010101101100 4
b1111001 ?
b101000111000010101101100 D
b101000111000010101101100 K
b101000111000011001101110 I
1%
#950000
b111101101011100 1
b111101101011100 8
0%
b1011100 $
b1011100 )
#955000
b101000111000011001101110 4
b101000111000011001101110 D
b101000111000011001101110 K
b1111001 3
b1111001 :
b1111001 B
b1111001 A
1%
#960000
b111101101011101 1
b111101101011101 8
0%
b1011101 $
b1011101 )
#965000
b10000001 ?
b101000011000001001101101 I
1%
#970000
b111101101011110 1
b111101101011110 8
0%
b1011110 $
b1011110 )
#975000
b101000011000001001101101 4
b101000011000001001101101 D
b101000011000001001101101 K
b10000111 ?
b10000001 3
b10000001 :
b10000001 B
b10000001 A
1%
#980000
b111101101011111 1
b111101101011111 8
0%
b1011111 $
b1011111 )
#985000
b10000111 3
b10000111 :
b10000111 B
b10000111 A
b10001000 ?
b100111100111111001101001 I
1%
#990000
b111101101100000 1
b111101101100000 8
0%
b1100000 $
b1100000 )
#995000
b100111100111111001101001 4
b100111000111110001100111 I
b100111100111111001101001 D
b100111100111111001101001 K
b10001100 ?
b10001000 3
b10001000 :
b10001000 B
b10001000 A
1%
#1000000
b111101101100001 1
b111101101100001 8
0%
b1100001 $
b1100001 )
#1005000
b100111000111110001100111 4
b10001100 3
b10001100 :
b10001100 B
b10001100 A
b10011000 ?
b100111000111110001100111 D
b100111000111110001100111 K
b100110110111101101100111 I
1%
#1010000
b111101101100010 1
b111101101100010 8
0%
b1100010 $
b1100010 )
#1015000
b100110110111101101100111 4
b100110000111100101100001 I
b100110110111101101100111 D
b100110110111101101100111 K
b10011111 ?
b10011000 3
b10011000 :
b10011000 B
b10011000 A
1%
#1020000
b111101101100011 1
b111101101100011 8
0%
b1100011 $
b1100011 )
#1025000
b100110000111100101100001 4
b10011111 3
b10011111 :
b10011111 B
b10011111 A
b100110000111100101100001 D
b100110000111100101100001 K
b100101010111010001100001 I
1%
#1030000
b111101101100100 1
b111101101100100 8
0%
b1100100 $
b1100100 )
#1035000
b100101010111010001100001 4
b100101010111000101011100 I
b100101010111010001100001 D
b100101010111010001100001 K
b10100100 ?
1%
#1040000
b111101101100101 1
b111101101100101 8
0%
b1100101 $
b1100101 )
#1045000
b100101010111000101011100 4
b10100100 3
b10100100 :
b10100100 B
b10100100 A
b100101010111000101011100 D
b100101010111000101011100 K
1%
#1050000
b111101101100110 1
b111101101100110 8
0%
b1100110 $
b1100110 )
#1055000
b100100010110111001011100 I
1%
#1060000
b111101101100111 1
b111101101100111 8
0%
b1100111 $
b1100111 )
#1065000
b100100010110111001011100 4
b10101100 ?
b100100010110111001011100 D
b100100010110111001011100 K
1%
#1070000
b111101101101000 1
b111101101101000 8
0%
b1101000 $
b1101000 )
#1075000
b11000100 ?
b10101100 3
b10101100 :
b10101100 B
b10101100 A
1%
#1080000
b111101101101001 1
b111101101101001 8
0%
b1101001 $
b1101001 )
#1085000
b11000100 3
b11000100 :
b11000100 B
b11000100 A
b11010101 ?
b100010100110101001011011 I
1%
#1090000
b111101101101010 1
b111101101101010 8
0%
b1101010 $
b1101010 )
#1095000
b100010100110101001011011 4
b100001000110010001010011 I
b100010100110101001011011 D
b100010100110101001011011 K
b11011010 ?
b11010101 3
b11010101 :
b11010101 B
b11010101 A
1%
#1100000
b111101101101011 1
b111101101101011 8
0%
b1101011 $
b1101011 )
#1105000
b100001000110010001010011 4
b11011010 3
b11011010 :
b11011010 B
b11011010 A
b11011111 ?
b100001000110010001010011 D
b100001000110010001010011 K
b11011100101000100111101 I
1%
#1110000
b111101101101100 1
b111101101101100 8
0%
b1101100 $
b1101100 )
#1115000
b11011100101000100111101 4
b11001100011110000110010 I
b11011100101000100111101 D
b11011100101000100111101 K
b11100100 ?
b11011111 3
b11011111 :
b11011111 B
b11011111 A
1%
#1120000
b111101101101101 1
b111101101101101 8
0%
b1101101 $
b1101101 )
#1125000
b11001100011110000110010 4
b11100100 3
b11100100 :
b11100100 B
b11100100 A
b11101000 ?
b11001100011110000110010 D
b11001100011110000110010 K
b10100000010111100100010 I
1%
#1130000
b111101101101110 1
b111101101101110 8
0%
b1101110 $
b1101110 )
#1135000
b10100000010111100100010 4
b10001110010000000011000 I
b10100000010111100100010 D
b10100000010111100100010 K
b11110010 ?
b11101000 3
b11101000 :
b11101000 B
b11101000 A
1%
#1140000
b111101101101111 1
b111101101101111 8
0%
b1101111 $
b1101111 )
#1145000
b10001110010000000011000 4
b11110010 3
b11110010 :
b11110010 B
b11110010 A
b11110111 ?
b10001110010000000011000 D
b10001110010000000011000 K
b1110100001010100010010 I
1%
#1150000
b111101101110000 1
b111101101110000 8
0%
b1110000 $
b1110000 )
#1155000
b1110100001010100010010 4
b1100110001000100001111 I
b1110100001010100010010 D
b1110100001010100010010 K
b11111001 ?
b11110111 3
b11110111 :
b11110111 B
b11110111 A
1%
#1160000
b111101101110001 1
b111101101110001 8
0%
b1110001 $
b1110001 )
#1165000
b1100110001000100001111 4
b11111001 3
b11111001 :
b11111001 B
b11111001 A
b1100110001000100001111 D
b1100110001000100001111 K
b1011000000110100001001 I
1%
#1170000
b111101101110010 1
b111101101110010 8
0%
b1110010 $
b1110010 )
#1175000
b1011000000110100001001 4
b1010010000101000000101 I
b1011000000110100001001 D
b1011000000110100001001 K
1%
#1180000
b111101101110011 1
b111101101110011 8
0%
b1110011 $
b1110011 )
#1185000
b1010010000101000000101 4
b1010010000101000000101 D
b1010010000101000000101 K
1%
#1190000
b111101101110100 1
b111101101110100 8
0%
b1110100 $
b1110100 )
#1195000
1%
#1200000
b111101101110101 1
b111101101110101 8
0%
b1110101 $
b1110101 )
#1205000
1%
#1210000
b111101101110110 1
b111101101110110 8
0%
b1110110 $
b1110110 )
#1215000
1%
#1220000
b111101101110111 1
b111101101110111 8
0%
b1110111 $
b1110111 )
#1225000
1%
#1230000
b111101101111000 1
b111101101111000 8
0%
b1111000 $
b1111000 )
#1235000
b11111000 ?
1%
#1240000
b111101101111001 1
b111101101111001 8
0%
b1111001 $
b1111001 )
#1245000
b11111000 3
b11111000 :
b11111000 B
b11111000 A
1%
#1250000
b111101101111010 1
b111101101111010 8
0%
b1111010 $
b1111010 )
#1255000
b1010100000101100000111 I
1%
#1260000
b111101101111011 1
b111101101111011 8
0%
b1111011 $
b1111011 )
#1265000
b1010100000101100000111 4
b11110111 ?
b1010100000101100000111 D
b1010100000101100000111 K
1%
#1270000
b111101101111100 1
b111101101111100 8
0%
b1111100 $
b1111100 )
#1275000
b11110111 3
b11110111 :
b11110111 B
b11110111 A
1%
#1280000
b111101101111101 1
b111101101111101 8
0%
b1111101 $
b1111101 )
#1285000
b1011000000110100001001 I
1%
#1290000
b111101101111110 1
b111101101111110 8
0%
b1111110 $
b1111110 )
#1295000
b1011000000110100001001 4
b1011000000110100001001 D
b1011000000110100001001 K
b11110101 ?
1%
#1300000
b111101101111111 1
b111101101111111 8
0%
b1111111 $
b1111111 )
#1305000
b11110101 3
b11110101 :
b11110101 B
b11110101 A
b11110110 ?
1%
#1310000
b111101110000000 1
b111101110000000 8
0%
b10000000 $
b10000000 )
#1315000
b1100000000111100001100 I
b11110110 3
b11110110 :
b11110110 B
b11110110 A
1%
#1320000
b111101110000001 1
b111101110000001 8
0%
b10000001 $
b10000001 )
#1325000
b1100000000111100001100 4
b1100000000111100001100 D
b1100000000111100001100 K
b1011100000111000001011 I
1%
#1330000
b111101110000010 1
b111101110000010 8
0%
b10000010 $
b10000010 )
#1335000
b1011100000111000001011 4
b1011100000111000001011 D
b1011100000111000001011 K
1%
#1340000
b111101110000011 1
b111101110000011 8
0%
b10000011 $
b10000011 )
#1345000
1%
#1350000
b111101110000100 1
b111101110000100 8
0%
b10000100 $
b10000100 )
#1355000
b11110101 ?
1%
#1360000
b111101110000101 1
b111101110000101 8
0%
b10000101 $
b10000101 )
#1365000
b11110101 3
b11110101 :
b11110101 B
b11110101 A
1%
#1370000
b111101110000110 1
b111101110000110 8
0%
b10000110 $
b10000110 )
#1375000
b1100000000111100001100 I
1%
#1380000
b111101110000111 1
b111101110000111 8
0%
b10000111 $
b10000111 )
#1385000
b1100000000111100001100 4
b11110100 ?
b1100000000111100001100 D
b1100000000111100001100 K
1%
#1390000
b111101110001000 1
b111101110001000 8
0%
b10001000 $
b10001000 )
#1395000
b11110001 ?
b11110100 3
b11110100 :
b11110100 B
b11110100 A
1%
#1400000
b111101110001001 1
b111101110001001 8
0%
b10001001 $
b10001001 )
#1405000
b11110001 3
b11110001 :
b11110001 B
b11110001 A
b11110100 ?
b1100100001000000001110 I
1%
#1410000
b111101110001010 1
b111101110001010 8
0%
b10001010 $
b10001010 )
#1415000
b1100100001000000001110 4
b1100110001000100010000 I
b1100100001000000001110 D
b1100100001000000001110 K
b11110100 3
b11110100 :
b11110100 B
b11110100 A
1%
#1420000
b111101110001011 1
b111101110001011 8
0%
b10001011 $
b10001011 )
#1425000
b1100110001000100010000 4
b1100110001000100010000 D
b1100110001000100010000 K
b1100100001000000001110 I
1%
#1430000
b111101110001100 1
b111101110001100 8
0%
b10001100 $
b10001100 )
#1435000
b1100100001000000001110 4
b1100100001000000001110 D
b1100100001000000001110 K
b11110001 ?
1%
#1440000
b111101110001101 1
b111101110001101 8
0%
b10001101 $
b10001101 )
#1445000
b11110001 3
b11110001 :
b11110001 B
b11110001 A
1%
#1450000
b111101110001110 1
b111101110001110 8
0%
b10001110 $
b10001110 )
#1455000
b1100110001000100010000 I
1%
#1460000
b111101110001111 1
b111101110001111 8
0%
b10001111 $
b10001111 )
#1465000
b1100110001000100010000 4
b1100110001000100010000 D
b1100110001000100010000 K
1%
#1470000
b111101110010000 1
b111101110010000 8
0%
b10010000 $
b10010000 )
#1475000
1%
#1480000
b111101110010001 1
b111101110010001 8
0%
b10010001 $
b10010001 )
#1485000
1%
#1490000
b111101110010010 1
b111101110010010 8
0%
b10010010 $
b10010010 )
#1495000
b11110100 ?
1%
#1500000
b111101110010011 1
b111101110010011 8
0%
b10010011 $
b10010011 )
#1505000
b11110100 3
b11110100 :
b11110100 B
b11110100 A
b11110001 ?
1%
#1510000
b111101110010100 1
b111101110010100 8
0%
b10010100 $
b10010100 )
#1515000
b1100100001000000001110 I
b11110001 3
b11110001 :
b11110001 B
b11110001 A
1%
#1520000
b111101110010101 1
b111101110010101 8
0%
b10010101 $
b10010101 )
#1525000
b1100100001000000001110 4
b1100100001000000001110 D
b1100100001000000001110 K
b1100110001000100010000 I
1%
#1530000
b111101110010110 1
b111101110010110 8
0%
b10010110 $
b10010110 )
#1535000
b1100110001000100010000 4
b1100110001000100010000 D
b1100110001000100010000 K
b11110100 ?
1%
#1540000
b111101110010111 1
b111101110010111 8
0%
b10010111 $
b10010111 )
#1545000
b11110100 3
b11110100 :
b11110100 B
b11110100 A
1%
#1550000
b111101110011000 1
b111101110011000 8
0%
b10011000 $
b10011000 )
#1555000
b1100100001000000001110 I
1%
#1560000
b111101110011001 1
b111101110011001 8
0%
b10011001 $
b10011001 )
#1565000
b1100100001000000001110 4
b11110001 ?
b1100100001000000001110 D
b1100100001000000001110 K
1%
#1570000
b111101110011010 1
b111101110011010 8
0%
b10011010 $
b10011010 )
#1575000
b11110001 3
b11110001 :
b11110001 B
b11110001 A
1%
#1580000
b111101110011011 1
b111101110011011 8
0%
b10011011 $
b10011011 )
#1585000
b1100110001000100010000 I
1%
#1590000
b111101110011100 1
b111101110011100 8
0%
b10011100 $
b10011100 )
#1595000
b1100110001000100010000 4
b1100110001000100010000 D
b1100110001000100010000 K
1%
#1600000
b111101110011101 1
b111101110011101 8
0%
b10011101 $
b10011101 )
#1605000
b11110000 ?
1%
#1610000
b111101110011110 1
b111101110011110 8
0%
b10011110 $
b10011110 )
#1615000
b11110000 3
b11110000 :
b11110000 B
b11110000 A
1%
#1620000
b111101110011111 1
b111101110011111 8
0%
b10011111 $
b10011111 )
#1625000
b1101000001000100010000 I
1%
#1630000
b111101110100000 1
b111101110100000 8
0%
b10100000 $
b10100000 )
#1635000
b1101000001000100010000 4
b1101000001000100010000 D
b1101000001000100010000 K
1%
#1640000
b111101110100001 1
b111101110100001 8
0%
b10100001 $
b10100001 )
#1645000
b11101110 ?
1%
#1650000
b111101110100010 1
b111101110100010 8
0%
b10100010 $
b10100010 )
#1655000
b11110000 ?
b11101110 3
b11101110 :
b11101110 B
b11101110 A
1%
#1660000
b111101110100011 1
b111101110100011 8
0%
b10100011 $
b10100011 )
#1665000
b11110000 3
b11110000 :
b11110000 B
b11110000 A
b1101100001001000010000 I
1%
#1670000
b111101110100100 1
b111101110100100 8
0%
b10100100 $
b10100100 )
#1675000
b1101100001001000010000 4
b1101000001000100010000 I
b1101100001001000010000 D
b1101100001001000010000 K
1%
#1680000
b111101110100101 1
b111101110100101 8
0%
b10100101 $
b10100101 )
#1685000
b1101000001000100010000 4
b1101000001000100010000 D
b1101000001000100010000 K
1%
#1690000
b111101110100110 1
b111101110100110 8
0%
b10100110 $
b10100110 )
#1695000
b11110001 ?
1%
#1700000
b111101110100111 1
b111101110100111 8
0%
b10100111 $
b10100111 )
#1705000
b11110001 3
b11110001 :
b11110001 B
b11110001 A
1%
