final_project/sim/length.vcd
$date
	Thu Dec 14 10:53:58 2023
$end
$version
	Icarus Verilog
$end
$timescale
	1ps
$end
$scope module length_tb $end
$var wire 1 ! valid_out $end
$var wire 32 " length_out [31:0] $end
$var reg 1 # clk_in $end
$var reg 32 $ mass_in [31:0] $end
$var reg 1 % rst_in $end
$var reg 1 & valid_in $end
$var reg 11 ' x0_in [10:0] $end
$var reg 11 ( x_in [10:0] $end
$var reg 10 ) y0_in [9:0] $end
$var reg 10 * y_in [9:0] $end
$scope module uut $end
$var wire 1 # clk_in $end
$var wire 1 & data_valid_in $end
$var wire 32 + mass_in [31:0] $end
$var wire 1 % rst_in $end
$var wire 11 , x0_in [10:0] $end
$var wire 11 - x_in [10:0] $end
$var wire 10 . y0_in [9:0] $end
$var wire 10 / y_in [9:0] $end
$var wire 32 0 sqrt_output [31:0] $end
$var wire 32 1 sqrt_input [31:0] $end
$var wire 32 2 r [31:0] $end
$var wire 32 3 min_four_ac_div_temp [31:0] $end
$var wire 1 4 invert $end
$var wire 1 5 divide_valid_out $end
$var wire 1 6 divide_error_out $end
$var wire 1 7 divide_busy_out $end
$var parameter 32 8 WIDTH $end
$var reg 32 9 b_squared [31:0] $end
$var reg 1 : divide_valid_in $end
$var reg 32 ; length_out [31:0] $end
$var reg 32 < min_four_ac [31:0] $end
$var reg 32 = min_four_ac_div [31:0] $end
$var reg 32 > neg_b [31:0] $end
$var reg 32 ? numerator [31:0] $end
$var reg 2 @ quadrant [1:0] $end
$var reg 32 A r_sqrt_arg [31:0] $end
$var reg 1 ! valid_out $end
$var reg 32 B x [31:0] $end
$var reg 32 C y [31:0] $end
$var integer 32 D state [31:0] $end
$scope module division $end
$var wire 1 # clk_in $end
$var wire 1 : data_valid_in $end
$var wire 32 E dividend_in [31:0] $end
$var wire 32 F divisor_in [31:0] $end
$var wire 1 % rst_in $end
$var parameter 32 G DIVIDING $end
$var parameter 32 H RESTING $end
$var parameter 32 I WIDTH $end
$var reg 1 7 busy_out $end
$var reg 1 5 data_valid_out $end
$var reg 32 J dividend [31:0] $end
$var reg 32 K divisor [31:0] $end
$var reg 1 6 error_out $end
$var reg 32 L quotient [31:0] $end
$var reg 32 M quotient_out [31:0] $end
$var reg 32 N remainder_out [31:0] $end
$var reg 1 O state $end
$upscope $end
$scope module r_val $end
$var wire 32 P sqrt_input [31:0] $end
$var reg 12 Q sqrt_output [11:0] $end
$upscope $end
$scope module sqrt $end
$var wire 32 R sqrt_input [31:0] $end
$var reg 12 S sqrt_output [11:0] $end
$upscope $end
$upscope $end
$scope begin $ivl_for_loop0 $end
$var integer 32 T i [31:0] $end
$upscope $end
$scope begin $ivl_for_loop1 $end
$var integer 32 U i [31:0] $end
$upscope $end
$scope begin $ivl_for_loop2 $end
$var integer 32 V i [31:0] $end
$upscope $end
$upscope $end
$enddefinitions $end
$comment Show the parameter values. $end
$dumpall
b100000 I
b0 H
b1 G
b1010 8
$end
#0
$dumpvars
b0 V
b0 U
b0 T
b0 S
bx R
b0 Q
bx P
xO
bx N
bx M
bx L
bx K
bx J
b0 F
bx E
b0 D
bx C
bx B
bx A
bx @
bx ?
bx >
bx =
bx <
bx ;
x:
bx 9
x7
x6
x5
x4
bx 3
b0 2
bx 1
b0 0
b1010 /
b0 .
b0 -
b0 ,
bx +
b1010 *
b0 )
b0 (
b0 '
x&
0%
bx $
0#
bx "
x!
$end
#5000
0!
1#
#10000
0#
1%
#15000
b0 "
b0 ;
04
b0 C
b0 B
05
0O
06
07
b0 N
b0 K
b0 J
b0 L
1#
#20000
0#
0%
#25000
1#
#30000
0#
b1010 (
b1010 -
#35000
1#
#40000
0#
#45000
1#
#50000
0#
#55000
1#
#60000
0#
#65000
1#
#70000
0#
#75000
1#
#80000
0#
#85000
1#
#90000
0#
#95000
1#
#100000
0#
#105000
1#
#110000
0#
#115000
1#
#120000
0#
#125000
1#
#130000
0#
#135000
1#
#140000
0#
#145000
1#
#150000
0#
#155000
1#
#160000
0#
#165000
1#
#170000
0#
#175000
1#
#180000
0#
#185000
1#
#190000
0#
#195000
1#
#200000
0#
#205000
1#
#210000
0#
#215000
1#
#220000
0#
#225000
1#
#230000
0#
#235000
1#
#240000
0#
#245000
1#
#250000
0#
#255000
1#
#260000
0#
#265000
1#
#270000
0#
#275000
1#
#280000
0#
#285000
1#
#290000
0#
#295000
1#
#300000
0#
#305000
1#
#310000
0#
#315000
1#
#320000
0#
#325000
1#
#330000
0#
#335000
1#
#340000
0#
#345000
1#
#350000
0#
#355000
1#
#360000
0#
#365000
1#
#370000
0#
#375000
1#
#380000
0#
#385000
1#
#390000
0#
#395000
1#
#400000
0#
#405000
1#
#410000
0#
#415000
1#
#420000
0#
#425000
1#
#430000
0#
#435000
1#
#440000
0#
#445000
1#
#450000
0#
#455000
1#
#460000
0#
#465000
1#
#470000
0#
#475000
1#
#480000
0#
#485000
1#
#490000
0#
#495000
1#
#500000
0#
#505000
1#
#510000
0#
#515000
1#
#520000
0#
#525000
1#
#530000
0#
#535000
1#
#540000
0#
#545000
1#
#550000
0#
#555000
1#
#560000
0#
#565000
1#
#570000
0#
#575000
1#
#580000
0#
#585000
1#
#590000
0#
#595000
1#
#600000
0#
#605000
1#
#610000
0#
#615000
1#
#620000
0#
#625000
1#
#630000
0#
#635000
1#
#640000
0#
#645000
1#
#650000
0#
#655000
1#
#660000
0#
#665000
1#
#670000
0#
#675000
1#
#680000
0#
#685000
1#
#690000
0#
#695000
1#
#700000
0#
#705000
1#
#710000
0#
#715000
1#
#720000
0#
#725000
1#
#730000
0#
#735000
1#
#740000
0#
#745000
1#
#750000
0#
#755000
1#
#760000
0#
#765000
1#
#770000
0#
#775000
1#
#780000
0#
#785000
1#
#790000
0#
#795000
1#
#800000
0#
#805000
1#
#810000
0#
#815000
1#
#820000
0#
#825000
1#
#830000
0#
#835000
1#
#840000
0#
#845000
1#
#850000
0#
#855000
1#
#860000
0#
#865000
1#
#870000
0#
#875000
1#
#880000
0#
#885000
1#
#890000
0#
#895000
1#
#900000
0#
#905000
1#
#910000
0#
#915000
1#
#920000
0#
#925000
1#
#930000
0#
#935000
1#
#940000
0#
#945000
1#
#950000
0#
#955000
1#
#960000
0#
#965000
1#
#970000
0#
#975000
1#
#980000
0#
#985000
1#
#990000
0#
#995000
1#
#1000000
0#
#1005000
1#
#1010000
0#
#1015000
1#
#1020000
0#
#1025000
1#
#1030000
0#
1%
#1035000
1#
#1040000
0#
0%
#1045000
1#
#1050000
0#
b10100 *
b10100 /
b1100100 (
b1100100 -
b1010 )
b1010 .
b1010 '
b1010 ,
