final_project/sim/word_sprite.vcd
$date
	Thu Nov 30 22:36:18 2023
$end
$version
	Icarus Verilog
$end
$timescale
	1ps
$end
$scope module word_sprite_tb $end
$var wire 8 ! red_out [7:0] $end
$var wire 8 " green_out [7:0] $end
$var wire 8 # blue_out [7:0] $end
$var reg 11 $ hcount_in [10:0] $end
$var reg 1 % pixel_clk_in $end
$var reg 1 & rst_in $end
$scope module uut $end
$var wire 1 ' dina $end
$var wire 1 ( ena $end
$var wire 11 ) hcount_in [10:0] $end
$var wire 1 * in_sprite $end
$var wire 1 % pixel_clk_in $end
$var wire 1 + pop_in $end
$var wire 1 , regcea $end
$var wire 1 & rst_in $end
$var wire 10 - vcount_in [9:0] $end
$var wire 1 . wea $end
$var wire 11 / x_in [10:0] $end
$var wire 10 0 y_in [9:0] $end
$var wire 8 1 red_out [7:0] $end
$var wire 12 2 image_addr [11:0] $end
$var wire 8 3 green_out [7:0] $end
$var wire 2 4 dout_image [1:0] $end
$var wire 24 5 colors_out [23:0] $end
$var wire 8 6 blue_out [7:0] $end
$var parameter 32 7 HEIGHT $end
$var parameter 32 8 WIDTH $end
$scope module image $end
$var wire 12 9 addra [11:0] $end
$var wire 1 % clka $end
$var wire 2 : dina [1:0] $end
$var wire 1 ( ena $end
$var wire 1 , regcea $end
$var wire 1 & rsta $end
$var wire 1 . wea $end
$var wire 2 ; douta [1:0] $end
$var parameter 152 < INIT_FILE $end
$var parameter 64 = RAM_DEPTH $end
$var parameter 128 > RAM_PERFORMANCE $end
$var parameter 2 ? RAM_WIDTH $end
$var reg 2 @ ram_data [1:0] $end
$scope function clogb2 $end
$var integer 32 A depth [31:0] $end
$upscope $end
$scope begin output_register $end
$var reg 2 B douta_reg [1:0] $end
$upscope $end
$scope begin use_init_file $end
$upscope $end
$upscope $end
$scope module palette $end
$var wire 1 C addra $end
$var wire 1 % clka $end
$var wire 24 D dina [23:0] $end
$var wire 1 ( ena $end
$var wire 1 , regcea $end
$var wire 1 & rsta $end
$var wire 1 . wea $end
$var wire 24 E douta [23:0] $end
$var parameter 168 F INIT_FILE $end
$var parameter 2 G RAM_DEPTH $end
$var parameter 128 H RAM_PERFORMANCE $end
$var parameter 5 I RAM_WIDTH $end
$var reg 24 J ram_data [23:0] $end
$scope function clogb2 $end
$var integer 32 K depth [31:0] $end
$upscope $end
$scope begin output_register $end
$var reg 24 L douta_reg [23:0] $end
$upscope $end
$scope begin use_init_file $end
$upscope $end
$upscope $end
$upscope $end
$upscope $end
$enddefinitions $end
$comment Show the parameter values. $end
$dumpall
b11000 I
b1001000010010010100011101001000010111110101000001000101010100100100011001001111010100100100110101000001010011100100001101000101 H
b10 G
b11001000110000101110100011000010010111101110111011011110111001001100100010111110111000001100001011011000110010101110100011101000110010100101110011011010110010101101101 F
b10 ?
b1001000010010010100011101001000010111110101000001000101010100100100011001001111010100100100110101000001010011100100001101000101 >
b1000000000000 =
b1100100011000010111010001100001001011110111011101101111011100100110010001011111011010010110110101100001011001110110010100101110011011010110010101101101 <
b10000000 8
b100000 7
$end
#0
$dumpvars
b0 L
bx K
b0 J
b0 E
b0 D
0C
b0 B
bx A
b0 @
b0 ;
b0 :
b100000000000 9
b0 6
b0 5
b0 4
b0 3
b100000000000 2
b0 1
b0 0
b0 /
0.
b10000 -
1,
z+
x*
b0 )
1(
0'
0&
0%
b0 $
b0 #
b0 "
b0 !
$end
#5000
b1 @
b101010001010100010101000 J
1%
#10000
0%
1&
#15000
1*
1%
#20000
0%
0&
#25000
b10101000 #
b10101000 6
b10101000 "
b10101000 3
b10101000 !
b10101000 1
1C
b1 4
b1 ;
b1 B
b101010001010100010101000 5
b101010001010100010101000 E
b101010001010100010101000 L
1%
#30000
0%
#35000
b0 J
1%
#40000
b100000000001 2
b100000000001 9
0%
b1 $
b1 )
#45000
b0 #
b0 6
b0 "
b0 3
b0 !
b0 1
b0 5
b0 E
b0 L
1%
#50000
b100000000010 2
b100000000010 9
0%
b10 $
b10 )
#55000
1%
#60000
b100000000011 2
b100000000011 9
0%
b11 $
b11 )
#65000
1%
#70000
b100000000100 2
b100000000100 9
0%
b100 $
b100 )
#75000
1%
#80000
b100000000101 2
b100000000101 9
0%
b101 $
b101 )
#85000
1%
#90000
b100000000110 2
b100000000110 9
0%
b110 $
b110 )
#95000
1%
#100000
b100000000111 2
b100000000111 9
0%
b111 $
b111 )
#105000
1%
#110000
b100000001000 2
b100000001000 9
0%
b1000 $
b1000 )
#115000
1%
#120000
b100000001001 2
b100000001001 9
0%
b1001 $
b1001 )
#125000
1%
#130000
b100000001010 2
b100000001010 9
0%
b1010 $
b1010 )
#135000
1%
#140000
b100000001011 2
b100000001011 9
0%
b1011 $
b1011 )
#145000
b0 @
1%
#150000
b100000001100 2
b100000001100 9
0%
b1100 $
b1100 )
#155000
0C
b0 4
b0 ;
b0 B
1%
#160000
b100000001101 2
b100000001101 9
0%
b1101 $
b1101 )
#165000
b101010001010100010101000 J
1%
#170000
b100000001110 2
b100000001110 9
0%
b1110 $
b1110 )
#175000
b10101000 #
b10101000 6
b10101000 "
b10101000 3
b10101000 !
b10101000 1
b101010001010100010101000 5
b101010001010100010101000 E
b101010001010100010101000 L
b1 @
1%
#180000
b100000001111 2
b100000001111 9
0%
b1111 $
b1111 )
#185000
1C
b1 4
b1 ;
b1 B
1%
#190000
b100000010000 2
b100000010000 9
0%
b10000 $
b10000 )
#195000
b0 J
1%
#200000
b100000010001 2
b100000010001 9
0%
b10001 $
b10001 )
#205000
b0 #
b0 6
b0 "
b0 3
b0 !
b0 1
b0 5
b0 E
b0 L
1%
#210000
b100000010010 2
b100000010010 9
0%
b10010 $
b10010 )
#215000
1%
#220000
b100000010011 2
b100000010011 9
0%
b10011 $
b10011 )
#225000
b0 @
1%
#230000
b100000010100 2
b100000010100 9
0%
b10100 $
b10100 )
#235000
0C
b0 4
b0 ;
b0 B
1%
#240000
b100000010101 2
b100000010101 9
0%
b10101 $
b10101 )
#245000
b101010001010100010101000 J
1%
#250000
b100000010110 2
b100000010110 9
0%
b10110 $
b10110 )
#255000
b10101000 #
b10101000 6
b10101000 "
b10101000 3
b10101000 !
b10101000 1
b101010001010100010101000 5
b101010001010100010101000 E
b101010001010100010101000 L
1%
#260000
b100000010111 2
b100000010111 9
0%
b10111 $
b10111 )
#265000
b1 @
1%
#270000
b100000011000 2
b100000011000 9
0%
b11000 $
b11000 )
#275000
1C
b1 4
b1 ;
b1 B
1%
#280000
b100000011001 2
b100000011001 9
0%
b11001 $
b11001 )
#285000
b0 J
1%
#290000
b100000011010 2
b100000011010 9
0%
b11010 $
b11010 )
#295000
b0 #
b0 6
b0 "
b0 3
b0 !
b0 1
b0 5
b0 E
b0 L
1%
#300000
b100000011011 2
b100000011011 9
0%
b11011 $
b11011 )
#305000
1%
#310000
b100000011100 2
b100000011100 9
0%
b11100 $
b11100 )
#315000
1%
#320000
b100000011101 2
b100000011101 9
0%
b11101 $
b11101 )
#325000
1%
#330000
b100000011110 2
b100000011110 9
0%
b11110 $
b11110 )
#335000
1%
#340000
b100000011111 2
b100000011111 9
0%
b11111 $
b11111 )
#345000
1%
#350000
b100000100000 2
b100000100000 9
0%
b100000 $
b100000 )
#355000
1%
#360000
b100000100001 2
b100000100001 9
0%
b100001 $
b100001 )
#365000
1%
#370000
b100000100010 2
b100000100010 9
0%
b100010 $
b100010 )
#375000
b0 @
1%
#380000
b100000100011 2
b100000100011 9
0%
b100011 $
b100011 )
#385000
0C
b0 4
b0 ;
b0 B
1%
#390000
b100000100100 2
b100000100100 9
0%
b100100 $
b100100 )
#395000
b101010001010100010101000 J
b1 @
1%
#400000
b100000100101 2
b100000100101 9
0%
b100101 $
b100101 )
#405000
b10101000 #
b10101000 6
b10101000 "
b10101000 3
b10101000 !
b10101000 1
1C
b1 4
b1 ;
b1 B
b101010001010100010101000 5
b101010001010100010101000 E
b101010001010100010101000 L
1%
#410000
b100000100110 2
b100000100110 9
0%
b100110 $
b100110 )
#415000
b0 J
1%
#420000
b100000100111 2
b100000100111 9
0%
b100111 $
b100111 )
#425000
b0 #
b0 6
b0 "
b0 3
b0 !
b0 1
b0 5
b0 E
b0 L
1%
#430000
b100000101000 2
b100000101000 9
0%
b101000 $
b101000 )
#435000
b0 @
1%
#440000
b100000101001 2
b100000101001 9
0%
b101001 $
b101001 )
#445000
0C
b0 4
b0 ;
b0 B
1%
#450000
b100000101010 2
b100000101010 9
0%
b101010 $
b101010 )
#455000
b101010001010100010101000 J
1%
#460000
b100000101011 2
b100000101011 9
0%
b101011 $
b101011 )
#465000
b10101000 #
b10101000 6
b10101000 "
b10101000 3
b10101000 !
b10101000 1
b1 @
b101010001010100010101000 5
b101010001010100010101000 E
b101010001010100010101000 L
1%
#470000
b100000101100 2
b100000101100 9
0%
b101100 $
b101100 )
#475000
1C
b1 4
b1 ;
b1 B
1%
#480000
b100000101101 2
b100000101101 9
0%
b101101 $
b101101 )
#485000
b0 J
1%
#490000
b100000101110 2
b100000101110 9
0%
b101110 $
b101110 )
#495000
b0 #
b0 6
b0 "
b0 3
b0 !
b0 1
b0 5
b0 E
b0 L
1%
#500000
b100000101111 2
b100000101111 9
0%
b101111 $
b101111 )
#505000
b0 @
1%
#510000
b100000110000 2
b100000110000 9
0%
b110000 $
b110000 )
#515000
0C
b0 4
b0 ;
b0 B
1%
#520000
b100000110001 2
b100000110001 9
0%
b110001 $
b110001 )
#525000
b101010001010100010101000 J
1%
#530000
b100000110010 2
b100000110010 9
0%
b110010 $
b110010 )
#535000
b10101000 #
b10101000 6
b10101000 "
b10101000 3
b10101000 !
b10101000 1
b101010001010100010101000 5
b101010001010100010101000 E
b101010001010100010101000 L
b1 @
1%
#540000
b100000110011 2
b100000110011 9
0%
b110011 $
b110011 )
#545000
1C
b1 4
b1 ;
b1 B
1%
#550000
b100000110100 2
b100000110100 9
0%
b110100 $
b110100 )
#555000
b0 J
1%
#560000
b100000110101 2
b100000110101 9
0%
b110101 $
b110101 )
#565000
b0 #
b0 6
b0 "
b0 3
b0 !
b0 1
b0 @
b0 5
b0 E
b0 L
1%
#570000
b100000110110 2
b100000110110 9
0%
b110110 $
b110110 )
#575000
0C
b0 4
b0 ;
b0 B
1%
#580000
b100000110111 2
b100000110111 9
0%
b110111 $
b110111 )
#585000
b101010001010100010101000 J
1%
#590000
b100000111000 2
b100000111000 9
0%
b111000 $
b111000 )
#595000
b10101000 #
b10101000 6
b10101000 "
b10101000 3
b10101000 !
b10101000 1
b101010001010100010101000 5
b101010001010100010101000 E
b101010001010100010101000 L
1%
#600000
b100000111001 2
b100000111001 9
0%
b111001 $
b111001 )
#605000
b1 @
1%
#610000
b100000111010 2
b100000111010 9
0%
b111010 $
b111010 )
#615000
1C
b1 4
b1 ;
b1 B
1%
#620000
b100000111011 2
b100000111011 9
0%
b111011 $
b111011 )
#625000
b0 J
1%
#630000
b100000111100 2
b100000111100 9
0%
b111100 $
b111100 )
#635000
b0 #
b0 6
b0 "
b0 3
b0 !
b0 1
b0 5
b0 E
b0 L
1%
#640000
b100000111101 2
b100000111101 9
0%
b111101 $
b111101 )
#645000
1%
#650000
b100000111110 2
b100000111110 9
0%
b111110 $
b111110 )
#655000
1%
#660000
b100000111111 2
b100000111111 9
0%
b111111 $
b111111 )
#665000
1%
#670000
b100001000000 2
b100001000000 9
0%
b1000000 $
b1000000 )
#675000
b0 @
1%
#680000
b100001000001 2
b100001000001 9
0%
b1000001 $
b1000001 )
#685000
0C
b0 4
b0 ;
b0 B
1%
#690000
b100001000010 2
b100001000010 9
0%
b1000010 $
b1000010 )
#695000
b101010001010100010101000 J
1%
#700000
b100001000011 2
b100001000011 9
0%
b1000011 $
b1000011 )
#705000
b10101000 #
b10101000 6
b10101000 "
b10101000 3
b10101000 !
b10101000 1
b101010001010100010101000 5
b101010001010100010101000 E
b101010001010100010101000 L
1%
#710000
b100001000100 2
b100001000100 9
0%
b1000100 $
b1000100 )
#715000
1%
#720000
b100001000101 2
b100001000101 9
0%
b1000101 $
b1000101 )
#725000
1%
#730000
b100001000110 2
b100001000110 9
0%
b1000110 $
b1000110 )
#735000
1%
#740000
b100001000111 2
b100001000111 9
0%
b1000111 $
b1000111 )
#745000
1%
#750000
b100001001000 2
b100001001000 9
0%
b1001000 $
b1001000 )
#755000
1%
#760000
b100001001001 2
b100001001001 9
0%
b1001001 $
b1001001 )
#765000
1%
#770000
b100001001010 2
b100001001010 9
0%
b1001010 $
b1001010 )
#775000
1%
#780000
b100001001011 2
b100001001011 9
0%
b1001011 $
b1001011 )
#785000
b1 @
1%
#790000
b100001001100 2
b100001001100 9
0%
b1001100 $
b1001100 )
#795000
1C
b1 4
b1 ;
b1 B
1%
#800000
b100001001101 2
b100001001101 9
0%
b1001101 $
b1001101 )
#805000
b0 J
1%
#810000
b100001001110 2
b100001001110 9
0%
b1001110 $
b1001110 )
#815000
b0 #
b0 6
b0 "
b0 3
b0 !
b0 1
b0 5
b0 E
b0 L
1%
#820000
b100001001111 2
b100001001111 9
0%
b1001111 $
b1001111 )
#825000
1%
#830000
b100001010000 2
b100001010000 9
0%
b1010000 $
b1010000 )
#835000
b0 @
1%
#840000
b100001010001 2
b100001010001 9
0%
b1010001 $
b1010001 )
#845000
0C
b0 4
b0 ;
b0 B
1%
#850000
b100001010010 2
b100001010010 9
0%
b1010010 $
b1010010 )
#855000
b101010001010100010101000 J
1%
#860000
b100001010011 2
b100001010011 9
0%
b1010011 $
b1010011 )
#865000
b10101000 #
b10101000 6
b10101000 "
b10101000 3
b10101000 !
b10101000 1
b1 @
b101010001010100010101000 5
b101010001010100010101000 E
b101010001010100010101000 L
1%
#870000
b100001010100 2
b100001010100 9
0%
b1010100 $
b1010100 )
#875000
1C
b1 4
b1 ;
b1 B
1%
#880000
b100001010101 2
b100001010101 9
0%
b1010101 $
b1010101 )
#885000
b0 J
1%
#890000
b100001010110 2
b100001010110 9
0%
b1010110 $
b1010110 )
#895000
b0 #
b0 6
b0 "
b0 3
b0 !
b0 1
b0 5
b0 E
b0 L
1%
#900000
b100001010111 2
b100001010111 9
0%
b1010111 $
b1010111 )
#905000
1%
#910000
b100001011000 2
b100001011000 9
0%
b1011000 $
b1011000 )
#915000
1%
#920000
b100001011001 2
b100001011001 9
0%
b1011001 $
b1011001 )
#925000
1%
#930000
b100001011010 2
b100001011010 9
0%
b1011010 $
b1011010 )
#935000
1%
#940000
b100001011011 2
b100001011011 9
0%
b1011011 $
b1011011 )
#945000
1%
#950000
b100001011100 2
b100001011100 9
0%
b1011100 $
b1011100 )
#955000
1%
#960000
b100001011101 2
b100001011101 9
0%
b1011101 $
b1011101 )
#965000
1%
#970000
b100001011110 2
b100001011110 9
0%
b1011110 $
b1011110 )
#975000
1%
#980000
b100001011111 2
b100001011111 9
0%
b1011111 $
b1011111 )
#985000
1%
#990000
b100001100000 2
b100001100000 9
0%
b1100000 $
b1100000 )
#995000
1%
#1000000
b100001100001 2
b100001100001 9
0%
b1100001 $
b1100001 )
#1005000
1%
#1010000
b100001100010 2
b100001100010 9
0%
b1100010 $
b1100010 )
#1015000
1%
#1020000
b100001100011 2
b100001100011 9
0%
b1100011 $
b1100011 )
#1025000
1%
#1030000
b100001100100 2
b100001100100 9
0%
b1100100 $
b1100100 )
#1035000
b0 @
1%
#1040000
b100001100101 2
b100001100101 9
0%
b1100101 $
b1100101 )
#1045000
0C
b0 4
b0 ;
b0 B
1%
#1050000
b100001100110 2
b100001100110 9
0%
b1100110 $
b1100110 )
#1055000
b101010001010100010101000 J
1%
#1060000
b100001100111 2
b100001100111 9
0%
b1100111 $
b1100111 )
#1065000
b10101000 #
b10101000 6
b10101000 "
b10101000 3
b10101000 !
b10101000 1
b101010001010100010101000 5
b101010001010100010101000 E
b101010001010100010101000 L
1%
#1070000
b100001101000 2
b100001101000 9
0%
b1101000 $
b1101000 )
#1075000
1%
#1080000
b100001101001 2
b100001101001 9
0%
b1101001 $
b1101001 )
#1085000
1%
#1090000
b100001101010 2
b100001101010 9
0%
b1101010 $
b1101010 )
#1095000
1%
#1100000
b100001101011 2
b100001101011 9
0%
b1101011 $
b1101011 )
#1105000
1%
#1110000
b100001101100 2
b100001101100 9
0%
b1101100 $
b1101100 )
#1115000
1%
#1120000
b100001101101 2
b100001101101 9
0%
b1101101 $
b1101101 )
#1125000
b1 @
1%
#1130000
b100001101110 2
b100001101110 9
0%
b1101110 $
b1101110 )
#1135000
1C
b1 4
b1 ;
b1 B
1%
#1140000
b100001101111 2
b100001101111 9
0%
b1101111 $
b1101111 )
#1145000
b0 J
1%
#1150000
b100001110000 2
b100001110000 9
0%
b1110000 $
b1110000 )
#1155000
b0 #
b0 6
b0 "
b0 3
b0 !
b0 1
b0 5
b0 E
b0 L
1%
#1160000
b100001110001 2
b100001110001 9
0%
b1110001 $
b1110001 )
#1165000
1%
#1170000
b100001110010 2
b100001110010 9
0%
b1110010 $
b1110010 )
#1175000
1%
#1180000
b100001110011 2
b100001110011 9
0%
b1110011 $
b1110011 )
#1185000
1%
#1190000
b100001110100 2
b100001110100 9
0%
b1110100 $
b1110100 )
#1195000
1%
#1200000
b100001110101 2
b100001110101 9
0%
b1110101 $
b1110101 )
#1205000
1%
#1210000
b100001110110 2
b100001110110 9
0%
b1110110 $
b1110110 )
#1215000
1%
#1220000
b100001110111 2
b100001110111 9
0%
b1110111 $
b1110111 )
#1225000
1%
#1230000
b100001111000 2
b100001111000 9
0%
b1111000 $
b1111000 )
#1235000
1%
#1240000
b100001111001 2
b100001111001 9
0%
b1111001 $
b1111001 )
#1245000
1%
#1250000
b100001111010 2
b100001111010 9
0%
b1111010 $
b1111010 )
#1255000
1%
#1260000
b100001111011 2
b100001111011 9
0%
b1111011 $
b1111011 )
#1265000
1%
#1270000
b100001111100 2
b100001111100 9
0%
b1111100 $
b1111100 )
#1275000
1%
#1280000
b100001111101 2
b100001111101 9
0%
b1111101 $
b1111101 )
#1285000
1%
#1290000
b100001111110 2
b100001111110 9
0%
b1111110 $
b1111110 )
#1295000
1%
#1300000
b100001111111 2
b100001111111 9
0%
b1111111 $
b1111111 )
#1305000
1%
#1310000
b100010000000 2
b100010000000 9
0%
b10000000 $
b10000000 )
#1315000
1%
#1320000
b100010000001 2
b100010000001 9
0%
b10000001 $
b10000001 )
#1325000
0*
1%
#1330000
b100010000010 2
b100010000010 9
0%
b10000010 $
b10000010 )
#1335000
1%
#1340000
b100010000011 2
b100010000011 9
0%
b10000011 $
b10000011 )
#1345000
1%
#1350000
b100010000100 2
b100010000100 9
0%
b10000100 $
b10000100 )
#1355000
1%
#1360000
b100010000101 2
b100010000101 9
0%
b10000101 $
b10000101 )
#1365000
1%
#1370000
b100010000110 2
b100010000110 9
0%
b10000110 $
b10000110 )
#1375000
1%
#1380000
b100010000111 2
b100010000111 9
0%
b10000111 $
b10000111 )
#1385000
1%
#1390000
b100010001000 2
b100010001000 9
0%
b10001000 $
b10001000 )
#1395000
1%
#1400000
b100010001001 2
b100010001001 9
0%
b10001001 $
b10001001 )
#1405000
1%
#1410000
b100010001010 2
b100010001010 9
0%
b10001010 $
b10001010 )
#1415000
1%
#1420000
b100010001011 2
b100010001011 9
0%
b10001011 $
b10001011 )
#1425000
b0 @
1%
#1430000
b100010001100 2
b100010001100 9
0%
b10001100 $
b10001100 )
#1435000
0C
b0 4
b0 ;
b0 B
1%
#1440000
b100010001101 2
b100010001101 9
0%
b10001101 $
b10001101 )
#1445000
b101010001010100010101000 J
1%
#1450000
b100010001110 2
b100010001110 9
0%
b10001110 $
b10001110 )
#1455000
b101010001010100010101000 5
b101010001010100010101000 E
b101010001010100010101000 L
1%
#1460000
b100010001111 2
b100010001111 9
0%
b10001111 $
b10001111 )
#1465000
1%
#1470000
b100010010000 2
b100010010000 9
0%
b10010000 $
b10010000 )
#1475000
1%
#1480000
b100010010001 2
b100010010001 9
0%
b10010001 $
b10010001 )
#1485000
1%
#1490000
b100010010010 2
b100010010010 9
0%
b10010010 $
b10010010 )
#1495000
1%
#1500000
b100010010011 2
b100010010011 9
0%
b10010011 $
b10010011 )
#1505000
1%
#1510000
b100010010100 2
b100010010100 9
0%
b10010100 $
b10010100 )
#1515000
1%
#1520000
b100010010101 2
b100010010101 9
0%
b10010101 $
b10010101 )
#1525000
1%
#1530000
b100010010110 2
b100010010110 9
0%
b10010110 $
b10010110 )
#1535000
1%
#1540000
b100010010111 2
b100010010111 9
0%
b10010111 $
b10010111 )
#1545000
b1 @
1%
#1550000
b100010011000 2
b100010011000 9
0%
b10011000 $
b10011000 )
#1555000
1C
b1 4
b1 ;
b1 B
1%
#1560000
b100010011001 2
b100010011001 9
0%
b10011001 $
b10011001 )
#1565000
b0 J
1%
#1570000
b100010011010 2
b100010011010 9
0%
b10011010 $
b10011010 )
#1575000
b0 5
b0 E
b0 L
1%
#1580000
b100010011011 2
b100010011011 9
0%
b10011011 $
b10011011 )
#1585000
1%
#1590000
b100010011100 2
b100010011100 9
0%
b10011100 $
b10011100 )
#1595000
1%
#1600000
b100010011101 2
b100010011101 9
0%
b10011101 $
b10011101 )
#1605000
1%
#1610000
b100010011110 2
b100010011110 9
0%
b10011110 $
b10011110 )
#1615000
1%
#1620000
b100010011111 2
b100010011111 9
0%
b10011111 $
b10011111 )
#1625000
1%
#1630000
b100010100000 2
b100010100000 9
0%
b10100000 $
b10100000 )
#1635000
1%
#1640000
b100010100001 2
b100010100001 9
0%
b10100001 $
b10100001 )
#1645000
1%
#1650000
b100010100010 2
b100010100010 9
0%
b10100010 $
b10100010 )
#1655000
b0 @
1%
#1660000
b100010100011 2
b100010100011 9
0%
b10100011 $
b10100011 )
#1665000
0C
b0 4
b0 ;
b0 B
1%
#1670000
b100010100100 2
b100010100100 9
0%
b10100100 $
b10100100 )
#1675000
b101010001010100010101000 J
b1 @
1%
#1680000
b100010100101 2
b100010100101 9
0%
b10100101 $
b10100101 )
#1685000
1C
b1 4
b1 ;
b1 B
b101010001010100010101000 5
b101010001010100010101000 E
b101010001010100010101000 L
1%
#1690000
b100010100110 2
b100010100110 9
0%
b10100110 $
b10100110 )
#1695000
b0 J
1%
#1700000
b100010100111 2
b100010100111 9
0%
b10100111 $
b10100111 )
#1705000
b0 5
b0 E
b0 L
1%
#1710000
b100010101000 2
b100010101000 9
0%
b10101000 $
b10101000 )
#1715000
1%
#1720000
b100010101001 2
b100010101001 9
0%
b10101001 $
b10101001 )
#1725000
b0 @
1%
#1730000
b100010101010 2
b100010101010 9
0%
b10101010 $
b10101010 )
#1735000
0C
b0 4
b0 ;
b0 B
1%
#1740000
b100010101011 2
b100010101011 9
0%
b10101011 $
b10101011 )
#1745000
b101010001010100010101000 J
1%
#1750000
b100010101100 2
b100010101100 9
0%
b10101100 $
b10101100 )
#1755000
b101010001010100010101000 5
b101010001010100010101000 E
b101010001010100010101000 L
b1 @
1%
#1760000
b100010101101 2
b100010101101 9
0%
b10101101 $
b10101101 )
#1765000
1C
b1 4
b1 ;
b1 B
1%
#1770000
b100010101110 2
b100010101110 9
0%
b10101110 $
b10101110 )
#1775000
b0 J
1%
#1780000
b100010101111 2
b100010101111 9
0%
b10101111 $
b10101111 )
#1785000
b0 @
b0 5
b0 E
b0 L
1%
#1790000
b100010110000 2
b100010110000 9
0%
b10110000 $
b10110000 )
#1795000
0C
b0 4
b0 ;
b0 B
1%
#1800000
b100010110001 2
b100010110001 9
0%
b10110001 $
b10110001 )
#1805000
b101010001010100010101000 J
1%
#1810000
b100010110010 2
b100010110010 9
0%
b10110010 $
b10110010 )
#1815000
b101010001010100010101000 5
b101010001010100010101000 E
b101010001010100010101000 L
b1 @
1%
#1820000
b100010110011 2
b100010110011 9
0%
b10110011 $
b10110011 )
#1825000
1C
b1 4
b1 ;
b1 B
1%
#1830000
b100010110100 2
b100010110100 9
0%
b10110100 $
b10110100 )
#1835000
b0 J
1%
#1840000
b100010110101 2
b100010110101 9
0%
b10110101 $
b10110101 )
#1845000
b0 5
b0 E
b0 L
1%
#1850000
b100010110110 2
b100010110110 9
0%
b10110110 $
b10110110 )
#1855000
b0 @
1%
#1860000
b100010110111 2
b100010110111 9
0%
b10110111 $
b10110111 )
#1865000
0C
b0 4
b0 ;
b0 B
1%
#1870000
b100010111000 2
b100010111000 9
0%
b10111000 $
b10111000 )
#1875000
b101010001010100010101000 J
1%
#1880000
b100010111001 2
b100010111001 9
0%
b10111001 $
b10111001 )
#1885000
b1 @
b101010001010100010101000 5
b101010001010100010101000 E
b101010001010100010101000 L
1%
#1890000
b100010111010 2
b100010111010 9
0%
b10111010 $
b10111010 )
#1895000
1C
b1 4
b1 ;
b1 B
1%
#1900000
b100010111011 2
b100010111011 9
0%
b10111011 $
b10111011 )
#1905000
b0 J
1%
#1910000
b100010111100 2
b100010111100 9
0%
b10111100 $
b10111100 )
#1915000
b0 5
b0 E
b0 L
1%
#1920000
b100010111101 2
b100010111101 9
0%
b10111101 $
b10111101 )
#1925000
1%
#1930000
b100010111110 2
b100010111110 9
0%
b10111110 $
b10111110 )
#1935000
1%
#1940000
b100010111111 2
b100010111111 9
0%
b10111111 $
b10111111 )
#1945000
1%
#1950000
b100011000000 2
b100011000000 9
0%
b11000000 $
b11000000 )
#1955000
b0 @
1%
#1960000
b100011000001 2
b100011000001 9
0%
b11000001 $
b11000001 )
#1965000
0C
b0 4
b0 ;
b0 B
1%
#1970000
b100011000010 2
b100011000010 9
0%
b11000010 $
b11000010 )
#1975000
b101010001010100010101000 J
1%
#1980000
b100011000011 2
b100011000011 9
0%
b11000011 $
b11000011 )
#1985000
b101010001010100010101000 5
b101010001010100010101000 E
b101010001010100010101000 L
1%
#1990000
b100011000100 2
b100011000100 9
0%
b11000100 $
b11000100 )
#1995000
1%
#2000000
b100011000101 2
b100011000101 9
0%
b11000101 $
b11000101 )
#2005000
1%
#2010000
b100011000110 2
b100011000110 9
0%
b11000110 $
b11000110 )
#2015000
1%
#2020000
b100011000111 2
b100011000111 9
0%
b11000111 $
b11000111 )
#2025000
1%
#2030000
b100011001000 2
b100011001000 9
0%
b11001000 $
b11001000 )
#2035000
1%
#2040000
b100011001001 2
b100011001001 9
0%
b11001001 $
b11001001 )
#2045000
1%
#2050000
b100011001010 2
b100011001010 9
0%
b11001010 $
b11001010 )
#2055000
b1 @
1%
#2060000
b100011001011 2
b100011001011 9
0%
b11001011 $
b11001011 )
#2065000
1C
b1 4
b1 ;
b1 B
1%
#2070000
b100011001100 2
b100011001100 9
0%
b11001100 $
b11001100 )
#2075000
b0 J
1%
#2080000
b100011001101 2
b100011001101 9
0%
b11001101 $
b11001101 )
#2085000
b0 5
b0 E
b0 L
1%
#2090000
b100011001110 2
b100011001110 9
0%
b11001110 $
b11001110 )
#2095000
1%
#2100000
b100011001111 2
b100011001111 9
0%
b11001111 $
b11001111 )
#2105000
1%
#2110000
b100011010000 2
b100011010000 9
0%
b11010000 $
b11010000 )
#2115000
b0 @
1%
#2120000
b100011010001 2
b100011010001 9
0%
b11010001 $
b11010001 )
#2125000
0C
b0 4
b0 ;
b0 B
1%
#2130000
b100011010010 2
b100011010010 9
0%
b11010010 $
b11010010 )
#2135000
b101010001010100010101000 J
1%
#2140000
b100011010011 2
b100011010011 9
0%
b11010011 $
b11010011 )
#2145000
b1 @
b101010001010100010101000 5
b101010001010100010101000 E
b101010001010100010101000 L
1%
#2150000
b100011010100 2
b100011010100 9
0%
b11010100 $
b11010100 )
#2155000
1C
b1 4
b1 ;
b1 B
1%
#2160000
b100011010101 2
b100011010101 9
0%
b11010101 $
b11010101 )
#2165000
b0 J
1%
#2170000
b100011010110 2
b100011010110 9
0%
b11010110 $
b11010110 )
#2175000
b0 5
b0 E
b0 L
1%
#2180000
b100011010111 2
b100011010111 9
0%
b11010111 $
b11010111 )
#2185000
1%
#2190000
b100011011000 2
b100011011000 9
0%
b11011000 $
b11011000 )
#2195000
1%
#2200000
b100011011001 2
b100011011001 9
0%
b11011001 $
b11011001 )
#2205000
1%
#2210000
b100011011010 2
b100011011010 9
0%
b11011010 $
b11011010 )
#2215000
1%
#2220000
b100011011011 2
b100011011011 9
0%
b11011011 $
b11011011 )
#2225000
1%
#2230000
b100011011100 2
b100011011100 9
0%
b11011100 $
b11011100 )
#2235000
1%
#2240000
b100011011101 2
b100011011101 9
0%
b11011101 $
b11011101 )
#2245000
1%
#2250000
b100011011110 2
b100011011110 9
0%
b11011110 $
b11011110 )
#2255000
1%
#2260000
b100011011111 2
b100011011111 9
0%
b11011111 $
b11011111 )
#2265000
1%
#2270000
b100011100000 2
b100011100000 9
0%
b11100000 $
b11100000 )
#2275000
1%
#2280000
b100011100001 2
b100011100001 9
0%
b11100001 $
b11100001 )
#2285000
1%
#2290000
b100011100010 2
b100011100010 9
0%
b11100010 $
b11100010 )
#2295000
1%
#2300000
b100011100011 2
b100011100011 9
0%
b11100011 $
b11100011 )
#2305000
1%
#2310000
b100011100100 2
b100011100100 9
0%
b11100100 $
b11100100 )
#2315000
b0 @
1%
#2320000
b100011100101 2
b100011100101 9
0%
b11100101 $
b11100101 )
#2325000
0C
b0 4
b0 ;
b0 B
1%
#2330000
b100011100110 2
b100011100110 9
0%
b11100110 $
b11100110 )
#2335000
b101010001010100010101000 J
1%
#2340000
b100011100111 2
b100011100111 9
0%
b11100111 $
b11100111 )
#2345000
b1 @
b101010001010100010101000 5
b101010001010100010101000 E
b101010001010100010101000 L
1%
#2350000
b100011101000 2
b100011101000 9
0%
b11101000 $
b11101000 )
#2355000
1C
b1 4
b1 ;
b1 B
1%
#2360000
b100011101001 2
b100011101001 9
0%
b11101001 $
b11101001 )
#2365000
b0 J
1%
#2370000
b100011101010 2
b100011101010 9
0%
b11101010 $
b11101010 )
#2375000
b0 5
b0 E
b0 L
1%
